{
  "2133444-4": {
    "@context": "https://hub.culturegraph.org/entityfacts/context/v1/entityfacts.jsonld",
    "@type": "organisation",
    "@id": "https://d-nb.info/gnd/2133444-4",
    "preferredName": "Franckesche Stiftungen zu Halle. Waisenhaus",
    "describedBy": {
      "valid": "2020-07-21T12:21:50Z",
      "license": "https://creativecommons.org/publicdomain/zero/1.0/",
      "@id": "https://hub.culturegraph.org/entityfacts/2133444-4"
    },
    "variantName": [
      "Waisenhaus",
      "Wäysenhaus (Halle, Saale)",
      "Wäysen-Hauß (Halle, Saale)",
      "Waysenhaus",
      "Weysenhaus",
      "Waisenhaus zu Halle",
      "Hallesches Waisenhaus",
      "Hallisches Waisenhaus",
      "Hallisches Waysenhaus",
      "Hällisches Waisenhaus",
      "Hällisches Waysenhaus",
      "Hällisches Wäysenhaus",
      "Wäisenhaus zu Glaucha an Halle",
      "Wäysen-Haus zu Glaucha an Halle",
      "Waysen-Haus zu Glaucha an Halle",
      "Wäysen-Hause zu Glaucha an Halle",
      "Wäysen-Hauße zu Glaucha an Halle",
      "Wäysen Haus zu Glaucha an Halle",
      "Wäysenhauß zu Glaucha an Halle",
      "Wåysenhaus zu Glaucha an Halle",
      "Wäysenhause zu Glaucha an Halle",
      "Orphanotropheus Glaucha-Halensis",
      "Orphanotrophium Glaucha-Halensis",
      "Orphanotropheon Glaucha-Halensis",
      "Orphanotropheum Glaucha-Halensis",
      "Orphanodochium Glaucha-Halensis",
      "Orphanodochius Glaucha-Halensis",
      "Orphanotropheion Glaucha-Halensis",
      "Orphanhouse at Glaucha near Hall",
      "Casa degli Orfanelli",
      "Maison des Orphelins",
      "Verlag des Erziehungsinstitutes",
      "Verlag des Erziehungsinstituts",
      "Waysenhäusische Schriften",
      "Sumtibus Orphanotropheum",
      "Sumtibus Orphanotrophii",
      "Waisenhaus-Buchhandlung (Halle, Saale)",
      "Waysenhaus-Buchhandlung (Halle, Saale)",
      "Buch-Laden des Wäysen-Hauses (Halle, Saale)",
      "Buchladen des Waisenhauses (Halle, Saale)",
      "Buchladen des Waysenhauses (Halle, Saale)",
      "Buchdruckerei des Waisenhauses (Halle, Saale)",
      "Buchhandlung des Waisenhauses (Halle, Saale)",
      "Buchh. des Waisenhauses (Halle, Saale)",
      "Verlag der Buchhandlung des Waisenhauses (Halle, Saale)",
      "Verlag der Waisenhaus-Buchhandlung (Halle)",
      "Verlag des Waisenhauses (Halle)",
      "Verlag des Wäysenhauses (Halle)",
      "Casa degli Orfanelli (Halle, Saale)",
      "Libraria Orphanotrophei (Halle, Saale)",
      "Librarie de la Maison des Orphelins (Halle)",
      "Buchhandlungen des Halleschen Waisenhauses",
      "Buchhandlungen des Hallischen Waisenhauses",
      "Buchhandlung des Hallischen Waisenhauses",
      "Litterae Orphanotrophei (Halle, Saale)",
      "Typi Orphanotrophei (Halle, Saale)",
      "Litteris Orphanotrophei (Halle, Saale)",
      "Litteris Orphanotrophei Glauchensis (Halle-Glaucha)",
      "Typis Orphanotrophei (Halle, Saale)",
      "Impensis Orphanotrophei",
      "Waysenhausische Schriften (Halle, Saale)",
      "Officina Orphanotrophei (Halle, Saale)",
      "Franckens Laden (Halle, Saale)",
      "Schriften des Waisenhauses"
    ],
    "dateOfEstablishment": [
      "XX.04.1701"
    ],
    "dateOfTermination": [
      "XX.XX.1945"
    ],
    "placeOfBusiness": [
      {
        "@id": "https://d-nb.info/gnd/4023025-9",
        "preferredName": "Halle (Saale)"
      },
      {
        "@id": "https://d-nb.info/gnd/1053698410",
        "preferredName": "Halle-Glaucha"
      }
    ],
    "associatedPlace": [
      {
        "@id": "https://d-nb.info/gnd/4051181-9",
        "preferredName": "Sachsen-Anhalt"
      }
    ],
    "associatedCountry": [
      {
        "@id": "https://d-nb.info/standards/vocab/gnd/geographic-area-code#XA-DXDE",
        "preferredName": "Deutschland, Deutsches Reich"
      },
      {
        "@id": "https://d-nb.info/standards/vocab/gnd/geographic-area-code#XA-DE-ST",
        "preferredName": "Sachsen-Anhalt"
      }
    ],
    "isA": [
      {
        "@id": "https://d-nb.info/gnd/4139280-2",
        "preferredName": "Waisenhaus"
      },
      {
        "@id": "https://d-nb.info/gnd/4145467-4",
        "preferredName": "Bildungseinrichtung"
      },
      {
        "@id": "https://d-nb.info/gnd/4008626-4",
        "preferredName": "Buchhandel"
      },
      {
        "@id": "https://d-nb.info/gnd/4063004-3",
        "preferredName": "Verlag"
      },
      {
        "@id": "https://d-nb.info/gnd/7743132-7",
        "preferredName": "Schnell-&-Steiner-Kulturpreis Kunst und Ethos"
      },
      {
        "@id": "https://d-nb.info/gnd/4133333-0",
        "preferredName": "Druckerei"
      }
    ],
    "biographicalOrHistoricalInformation": "Gegründet von August Hermann Francke.",
    "successor": [
      {
        "@id": "https://d-nb.info/gnd/10189848-4",
        "preferredName": "Franckesche Stiftungen zu Halle. Historisches Waisenhaus"
      }
    ],
    "isPartOf": [
      {
        "@id": "https://d-nb.info/gnd/2040596-0",
        "preferredName": "Franckesche Stiftungen zu Halle"
      }
    ],
    "sameAs": [
      {
        "@id": "https://d-nb.info/gnd/2133444-4/about",
        "collection": {
          "abbr": "DNB",
          "name": "Gemeinsame Normdatei (GND) im Katalog der Deutschen Nationalbibliothek",
          "publisher": "Deutsche Nationalbibliothek",
          "icon": "https://www.dnb.de/SiteGlobals/Frontend/DNBWeb/Images/favicon.png?__blob=normal&v=4"
        }
      },
      {
        "@id": "https://kalliope-verbund.info/gnd/2133444-4",
        "collection": {
          "abbr": "DE-611",
          "name": "Kalliope Verbundkatalog",
          "publisher": "Staatsbibliothek zu Berlin - Preußischer Kulturbesitz"
        }
      },
      {
        "@id": "https://www.deutsche-digitale-bibliothek.de/organization/gnd/2133444-4",
        "collection": {
          "abbr": "DDB",
          "name": "Deutsche Digitale Bibliothek",
          "publisher": "Deutsche Digitale Bibliothek",
          "icon": "https://www.deutsche-digitale-bibliothek.de/favicon.ico"
        }
      },
      {
        "@id": "http://id.loc.gov/rwo/agents/n82012523",
        "collection": {
          "abbr": "LC",
          "name": "NACO Authority File",
          "publisher": "Library of Congress",
          "icon": "http://www.loc.gov/favicon.ico"
        }
      },
      {
        "@id": "http://isni.org/isni/0000000115160056",
        "collection": {
          "abbr": "ISNI",
          "name": "International Standard Name Identifier (ISNI)",
          "publisher": "International Standard Name Identifier (ISNI)",
          "icon": "http://www.isni.org/sites/default/files/isni_new_favicon.ico"
        }
      },
      {
        "@id": "http://viaf.org/viaf/125506166",
        "collection": {
          "abbr": "VIAF",
          "name": "Virtual International Authority File (VIAF)",
          "publisher": "OCLC",
          "icon": "http://viaf.org/viaf/images/viaf.ico"
        }
      }
    ]
  },
  "6146388-7": {
    "@context": "https://hub.culturegraph.org/entityfacts/context/v1/entityfacts.jsonld",
    "@type": "organisation",
    "@id": "https://d-nb.info/gnd/6146388-7",
    "preferredName": "Heinrich Johann Meyer Erben (Frankfurt (Oder))",
    "describedBy": {
      "valid": "2020-07-21T12:22:02Z",
      "license": "https://creativecommons.org/publicdomain/zero/1.0/",
      "@id": "https://hub.culturegraph.org/entityfacts/6146388-7"
    },
    "variantName": [
      "Heinr. Joh. Meierus Heredes (Frankfurt (Oder))",
      "Heinrich Johann Meier Erben (Frankfurt (Oder))",
      "Heinrich Johann Mayer Erben (Frankfurt (Oder))",
      "Heinrich Johann Meyer Seel. Erben (Frankfurt (Oder))",
      "Heinrich Johann Mäyer Erben (Frankfurt (Oder))",
      "Officina Maieriana (Frankfurt (Oder))",
      "Heredes Meieriani (Frankfurt (Oder))",
      "Vid. & Hered. Henr. Joh. Meyeri (Frankfurt (Oder))",
      "Henr. Joh. Meyerus (Frankfurt (Oder))",
      "Henricus Johannes Meyerus (Frankfurt (Oder))",
      "Heinrici Johannis Meieri Hered. (Frankfurt (Oder))",
      "Heinricus Johannes Meierus Hered. (Frankfurt (Oder))"
    ],
    "placeOfBusiness": [
      {
        "@id": "https://d-nb.info/gnd/4018122-4",
        "preferredName": "Frankfurt (Oder)"
      },
      {
        "@id": "https://d-nb.info/gnd/4066640-2",
        "preferredName": "Wittenberg"
      }
    ],
    "associatedCountry": [
      {
        "@id": "https://d-nb.info/standards/vocab/gnd/geographic-area-code#XA-DXDE",
        "preferredName": "Deutschland, Deutsches Reich"
      }
    ],
    "isA": [
      {
        "@id": "https://d-nb.info/gnd/4063004-3",
        "preferredName": "Verlag"
      }
    ],
    "sameAs": [
      {
        "@id": "https://d-nb.info/gnd/6146388-7/about",
        "collection": {
          "abbr": "DNB",
          "name": "Gemeinsame Normdatei (GND) im Katalog der Deutschen Nationalbibliothek",
          "publisher": "Deutsche Nationalbibliothek",
          "icon": "https://www.dnb.de/SiteGlobals/Frontend/DNBWeb/Images/favicon.png?__blob=normal&v=4"
        }
      },
      {
        "@id": "https://www.deutsche-digitale-bibliothek.de/organization/gnd/6146388-7",
        "collection": {
          "abbr": "DDB",
          "name": "Deutsche Digitale Bibliothek",
          "publisher": "Deutsche Digitale Bibliothek",
          "icon": "https://www.deutsche-digitale-bibliothek.de/favicon.ico"
        }
      },
      {
        "@id": "http://viaf.org/viaf/134435706",
        "collection": {
          "abbr": "VIAF",
          "name": "Virtual International Authority File (VIAF)",
          "publisher": "OCLC",
          "icon": "http://viaf.org/viaf/images/viaf.ico"
        }
      }
    ]
  },
  "6146247-0": {
    "@context": "https://hub.culturegraph.org/entityfacts/context/v1/entityfacts.jsonld",
    "@type": "organisation",
    "@id": "https://d-nb.info/gnd/6146247-0",
    "preferredName": "Simon Johann Hübner Erben",
    "describedBy": {
      "valid": "2020-07-21T12:22:10Z",
      "license": "https://creativecommons.org/publicdomain/zero/1.0/",
      "@id": "https://hub.culturegraph.org/entityfacts/6146247-0"
    },
    "associatedCountry": [
      {
        "@id": "https://d-nb.info/standards/vocab/gnd/geographic-area-code#XA-DXDE",
        "preferredName": "Deutschland, Deutsches Reich"
      }
    ],
    "isA": [
      {
        "@id": "https://d-nb.info/gnd/4063004-3",
        "preferredName": "Verlag"
      }
    ],
    "sameAs": [
      {
        "@id": "https://d-nb.info/gnd/6146247-0/about",
        "collection": {
          "abbr": "DNB",
          "name": "Gemeinsame Normdatei (GND) im Katalog der Deutschen Nationalbibliothek",
          "publisher": "Deutsche Nationalbibliothek",
          "icon": "https://www.dnb.de/SiteGlobals/Frontend/DNBWeb/Images/favicon.png?__blob=normal&v=4"
        }
      },
      {
        "@id": "http://viaf.org/viaf/150839425",
        "collection": {
          "abbr": "VIAF",
          "name": "Virtual International Authority File (VIAF)",
          "publisher": "OCLC",
          "icon": "http://viaf.org/viaf/images/viaf.ico"
        }
      }
    ]
  },
  "6146257-3": {
    "@context": "https://hub.culturegraph.org/entityfacts/context/v1/entityfacts.jsonld",
    "@type": "organisation",
    "@id": "https://d-nb.info/gnd/6146257-3",
    "preferredName": "Johann Nikolaus Gerlach Erben (Magdeburg)",
    "describedBy": {
      "valid": "2020-07-21T12:22:14Z",
      "license": "https://creativecommons.org/publicdomain/zero/1.0/",
      "@id": "https://hub.culturegraph.org/entityfacts/6146257-3"
    },
    "placeOfBusiness": [
      {
        "@id": "https://d-nb.info/gnd/4036934-1",
        "preferredName": "Magdeburg"
      }
    ],
    "associatedCountry": [
      {
        "@id": "https://d-nb.info/standards/vocab/gnd/geographic-area-code#XA-DXDE",
        "preferredName": "Deutschland, Deutsches Reich"
      }
    ],
    "isA": [
      {
        "@id": "https://d-nb.info/gnd/4063004-3",
        "preferredName": "Verlag"
      }
    ],
    "sameAs": [
      {
        "@id": "https://d-nb.info/gnd/6146257-3/about",
        "collection": {
          "abbr": "DNB",
          "name": "Gemeinsame Normdatei (GND) im Katalog der Deutschen Nationalbibliothek",
          "publisher": "Deutsche Nationalbibliothek",
          "icon": "https://www.dnb.de/SiteGlobals/Frontend/DNBWeb/Images/favicon.png?__blob=normal&v=4"
        }
      },
      {
        "@id": "https://www.deutsche-digitale-bibliothek.de/organization/gnd/6146257-3",
        "collection": {
          "abbr": "DDB",
          "name": "Deutsche Digitale Bibliothek",
          "publisher": "Deutsche Digitale Bibliothek",
          "icon": "https://www.deutsche-digitale-bibliothek.de/favicon.ico"
        }
      },
      {
        "@id": "http://viaf.org/viaf/152012398",
        "collection": {
          "abbr": "VIAF",
          "name": "Virtual International Authority File (VIAF)",
          "publisher": "OCLC",
          "icon": "http://viaf.org/viaf/images/viaf.ico"
        }
      }
    ]
  },
  "6146175-1": {
    "@context": "https://hub.culturegraph.org/entityfacts/context/v1/entityfacts.jsonld",
    "@type": "organisation",
    "@id": "https://d-nb.info/gnd/6146175-1",
    "preferredName": "Johann Brühl Erben",
    "describedBy": {
      "valid": "2020-07-21T12:22:16Z",
      "license": "https://creativecommons.org/publicdomain/zero/1.0/",
      "@id": "https://hub.culturegraph.org/entityfacts/6146175-1"
    },
    "variantName": [
      "Marie Sabine Brühl",
      "Brühlische Littern",
      "Brühlische  Schrifften",
      "Literis Brühlianis",
      "Charactere Bruhliano",
      "Johann Brühls Witbe",
      "Joh. Brühls Witbe",
      "Johann Brühls Wittbe",
      "Joh. Brühls Wittbe"
    ],
    "relatedPerson": [
      {
        "@id": "https://d-nb.info/gnd/1177188988",
        "preferredName": "Maria Sabine Brühl"
      }
    ],
    "placeOfBusiness": [
      {
        "@id": "https://d-nb.info/gnd/4065247-6",
        "preferredName": "Weißenfels"
      }
    ],
    "associatedCountry": [
      {
        "@id": "https://d-nb.info/standards/vocab/gnd/geographic-area-code#XA-DXDE",
        "preferredName": "Deutschland, Deutsches Reich"
      }
    ],
    "isA": [
      {
        "@id": "https://d-nb.info/gnd/4017250-8",
        "preferredName": "Firma"
      }
    ],
    "sameAs": [
      {
        "@id": "https://d-nb.info/gnd/6146175-1/about",
        "collection": {
          "abbr": "DNB",
          "name": "Gemeinsame Normdatei (GND) im Katalog der Deutschen Nationalbibliothek",
          "publisher": "Deutsche Nationalbibliothek",
          "icon": "https://www.dnb.de/SiteGlobals/Frontend/DNBWeb/Images/favicon.png?__blob=normal&v=4"
        }
      },
      {
        "@id": "https://www.deutsche-digitale-bibliothek.de/organization/gnd/6146175-1",
        "collection": {
          "abbr": "DDB",
          "name": "Deutsche Digitale Bibliothek",
          "publisher": "Deutsche Digitale Bibliothek",
          "icon": "https://www.deutsche-digitale-bibliothek.de/favicon.ico"
        }
      },
      {
        "@id": "http://viaf.org/viaf/155512657",
        "collection": {
          "abbr": "VIAF",
          "name": "Virtual International Authority File (VIAF)",
          "publisher": "OCLC",
          "icon": "http://viaf.org/viaf/images/viaf.ico"
        }
      }
    ]
  },
  "6147529-4": {
    "@context": "https://hub.culturegraph.org/entityfacts/context/v1/entityfacts.jsonld",
    "@type": "organisation",
    "@id": "https://d-nb.info/gnd/6147529-4",
    "preferredName": "Johann Melchior Oelschlägel Schriften (Halle (Saale))",
    "describedBy": {
      "valid": "2020-07-21T12:22:18Z",
      "license": "https://creativecommons.org/publicdomain/zero/1.0/",
      "@id": "https://hub.culturegraph.org/entityfacts/6147529-4"
    },
    "variantName": [
      "Typis Oelschlegelianis (Halle (Saale))",
      "Literis Oelschlegelianis (Halle (Saale))"
    ],
    "placeOfBusiness": [
      {
        "@id": "https://d-nb.info/gnd/4023025-9",
        "preferredName": "Halle (Saale)"
      }
    ],
    "associatedCountry": [
      {
        "@id": "https://d-nb.info/standards/vocab/gnd/geographic-area-code#XA-DXDE",
        "preferredName": "Deutschland, Deutsches Reich"
      }
    ],
    "isA": [
      {
        "@id": "https://d-nb.info/gnd/4133333-0",
        "preferredName": "Druckerei"
      }
    ],
    "sameAs": [
      {
        "@id": "https://d-nb.info/gnd/6147529-4/about",
        "collection": {
          "abbr": "DNB",
          "name": "Gemeinsame Normdatei (GND) im Katalog der Deutschen Nationalbibliothek",
          "publisher": "Deutsche Nationalbibliothek",
          "icon": "https://www.dnb.de/SiteGlobals/Frontend/DNBWeb/Images/favicon.png?__blob=normal&v=4"
        }
      },
      {
        "@id": "https://www.deutsche-digitale-bibliothek.de/organization/gnd/6147529-4",
        "collection": {
          "abbr": "DDB",
          "name": "Deutsche Digitale Bibliothek",
          "publisher": "Deutsche Digitale Bibliothek",
          "icon": "https://www.deutsche-digitale-bibliothek.de/favicon.ico"
        }
      },
      {
        "@id": "http://viaf.org/viaf/141463187",
        "collection": {
          "abbr": "VIAF",
          "name": "Virtual International Authority File (VIAF)",
          "publisher": "OCLC",
          "icon": "http://viaf.org/viaf/images/viaf.ico"
        }
      }
    ]
  },
  "6146378-4": {
    "@context": "https://hub.culturegraph.org/entityfacts/context/v1/entityfacts.jsonld",
    "@type": "organisation",
    "@id": "https://d-nb.info/gnd/6146378-4",
    "preferredName": "Johann Grosse II. Witwe und Erben",
    "describedBy": {
      "valid": "2020-07-21T12:22:20Z",
      "license": "https://creativecommons.org/publicdomain/zero/1.0/",
      "@id": "https://hub.culturegraph.org/entityfacts/6146378-4"
    },
    "variantName": [
      "Grosse II. Witwe und Erben",
      "Johannes Grosius Vidua & Haeredes",
      "Grosius Vidua & Haeredes",
      "Johannes Grossius Vidua & Haeredes",
      "Grossius Vidua & Haeredes",
      "Haeredes Grossiani"
    ],
    "dateOfEstablishment": [
      "1691"
    ],
    "dateOfTermination": [
      "1699"
    ],
    "placeOfBusiness": [
      {
        "@id": "https://d-nb.info/gnd/4035206-7",
        "preferredName": "Leipzig"
      }
    ],
    "associatedCountry": [
      {
        "@id": "https://d-nb.info/standards/vocab/gnd/geographic-area-code#XA-DXDE",
        "preferredName": "Deutschland, Deutsches Reich"
      },
      {
        "@id": "https://d-nb.info/standards/vocab/gnd/geographic-area-code#XA-DE-SN",
        "preferredName": "Sachsen"
      }
    ],
    "isA": [
      {
        "@id": "https://d-nb.info/gnd/4063004-3",
        "preferredName": "Verlag"
      }
    ],
    "successor": [
      {
        "@id": "https://d-nb.info/gnd/5036106-5",
        "preferredName": "Großische Handlung"
      }
    ],
    "sameAs": [
      {
        "@id": "https://d-nb.info/gnd/6146378-4/about",
        "collection": {
          "abbr": "DNB",
          "name": "Gemeinsame Normdatei (GND) im Katalog der Deutschen Nationalbibliothek",
          "publisher": "Deutsche Nationalbibliothek",
          "icon": "https://www.dnb.de/SiteGlobals/Frontend/DNBWeb/Images/favicon.png?__blob=normal&v=4"
        }
      },
      {
        "@id": "https://www.deutsche-digitale-bibliothek.de/organization/gnd/6146378-4",
        "collection": {
          "abbr": "DDB",
          "name": "Deutsche Digitale Bibliothek",
          "publisher": "Deutsche Digitale Bibliothek",
          "icon": "https://www.deutsche-digitale-bibliothek.de/favicon.ico"
        }
      },
      {
        "@id": "http://id.loc.gov/rwo/agents/no2015098717",
        "collection": {
          "abbr": "LC",
          "name": "NACO Authority File",
          "publisher": "Library of Congress",
          "icon": "http://www.loc.gov/favicon.ico"
        }
      },
      {
        "@id": "http://viaf.org/viaf/129751245",
        "collection": {
          "abbr": "VIAF",
          "name": "Virtual International Authority File (VIAF)",
          "publisher": "OCLC",
          "icon": "http://viaf.org/viaf/images/viaf.ico"
        }
      }
    ]
  },
  "6146540-9": {
    "@context": "https://hub.culturegraph.org/entityfacts/context/v1/entityfacts.jsonld",
    "@type": "organisation",
    "@id": "https://d-nb.info/gnd/6146540-9",
    "preferredName": "Friedrich Lanckischens Erben (1670-1764)",
    "describedBy": {
      "valid": "2020-07-21T12:22:24Z",
      "license": "https://creativecommons.org/publicdomain/zero/1.0/",
      "@id": "https://hub.culturegraph.org/entityfacts/6146540-9"
    },
    "variantName": [
      "Friedrich Lanckischen Erben (1670-1764)",
      "Friedrich Lanckisch Erben",
      "Friedrich Lankisch Erben",
      "Fridrich Lanckischens Erben",
      "Friedr. Lanckischens Erben",
      "Friedr. Lanckischens sel. Erben",
      "Fridericus Lanckisius Haeredes",
      "Frid. Lanckisius Haeredes",
      "Heredes Lanckisiani",
      "Haeredes Lankisii",
      "Haered. Lanckisii",
      "Haeredes Lankisius",
      "Haered. Lanckisius",
      "Haered. Lanckisianorum",
      "Haered. F. Lanckisii",
      "Haeredes Lanckisianorum",
      "Haeredes Frid. Lanckisii",
      "Haered. Frider. Lanckisii",
      "Lankische Buchhandlung",
      "Lanckschens Buchladen",
      "Lanckischens Buchladen",
      "Lanckischer Buchladen",
      "Lankischens Buchhandlung",
      "Lanckischer Laden",
      "Fréderic Lanckisch Heritiers",
      "Lanckischens Handlung",
      "Haeredum Lankisianorum",
      "Johann Friedrich Lankischens Erben",
      "Friederich Lanckischens Erben",
      "Friederich Lankischens Erben",
      "Friderich Lanckischens Erben",
      "Haeredes Friderici Lanckisii",
      "Apud Heredes Lanckisios"
    ],
    "dateOfEstablishment": [
      "1670"
    ],
    "dateOfTermination": [
      "1764"
    ],
    "founder": [
      {
        "@id": "https://d-nb.info/gnd/12403909X",
        "preferredName": "Friedrich Lanckisch"
      }
    ],
    "relatedPerson": [
      {
        "@id": "https://d-nb.info/gnd/1038514843",
        "preferredName": "Friedrich Lanckisch"
      }
    ],
    "placeOfBusiness": [
      {
        "@id": "https://d-nb.info/gnd/4035206-7",
        "preferredName": "Leipzig"
      }
    ],
    "associatedCountry": [
      {
        "@id": "https://d-nb.info/standards/vocab/gnd/geographic-area-code#XA-DXDE",
        "preferredName": "Deutschland, Deutsches Reich"
      }
    ],
    "isA": [
      {
        "@id": "https://d-nb.info/gnd/4017250-8",
        "preferredName": "Firma"
      },
      {
        "@id": "https://d-nb.info/gnd/4008626-4",
        "preferredName": "Buchhandel"
      },
      {
        "@id": "https://d-nb.info/gnd/4055640-2",
        "preferredName": "Sortimentsbuchhandel"
      },
      {
        "@id": "https://d-nb.info/gnd/4566978-8",
        "preferredName": "Kommissionsbuchhandel"
      },
      {
        "@id": "https://d-nb.info/gnd/4063004-3",
        "preferredName": "Verlag"
      }
    ],
    "successor": [
      {
        "@id": "https://d-nb.info/gnd/1072932997",
        "preferredName": "Johann Friedrich Junius (Leipzig)"
      }
    ],
    "sameAs": [
      {
        "@id": "https://d-nb.info/gnd/6146540-9/about",
        "collection": {
          "abbr": "DNB",
          "name": "Gemeinsame Normdatei (GND) im Katalog der Deutschen Nationalbibliothek",
          "publisher": "Deutsche Nationalbibliothek",
          "icon": "https://www.dnb.de/SiteGlobals/Frontend/DNBWeb/Images/favicon.png?__blob=normal&v=4"
        }
      },
      {
        "@id": "https://kalliope-verbund.info/gnd/6146540-9",
        "collection": {
          "abbr": "DE-611",
          "name": "Kalliope Verbundkatalog",
          "publisher": "Staatsbibliothek zu Berlin - Preußischer Kulturbesitz"
        }
      },
      {
        "@id": "https://www.deutsche-digitale-bibliothek.de/organization/gnd/6146540-9",
        "collection": {
          "abbr": "DDB",
          "name": "Deutsche Digitale Bibliothek",
          "publisher": "Deutsche Digitale Bibliothek",
          "icon": "https://www.deutsche-digitale-bibliothek.de/favicon.ico"
        }
      },
      {
        "@id": "http://id.loc.gov/rwo/agents/no2012095703",
        "collection": {
          "abbr": "LC",
          "name": "NACO Authority File",
          "publisher": "Library of Congress",
          "icon": "http://www.loc.gov/favicon.ico"
        }
      },
      {
        "@id": "http://isni.org/isni/0000000110109366",
        "collection": {
          "abbr": "ISNI",
          "name": "International Standard Name Identifier (ISNI)",
          "publisher": "International Standard Name Identifier (ISNI)",
          "icon": "http://www.isni.org/sites/default/files/isni_new_favicon.ico"
        }
      },
      {
        "@id": "http://viaf.org/viaf/133262671",
        "collection": {
          "abbr": "VIAF",
          "name": "Virtual International Authority File (VIAF)",
          "publisher": "OCLC",
          "icon": "http://viaf.org/viaf/images/viaf.ico"
        }
      }
    ]
  },
  "6146237-8": {
    "@context": "https://hub.culturegraph.org/entityfacts/context/v1/entityfacts.jsonld",
    "@type": "organisation",
    "@id": "https://d-nb.info/gnd/6146237-8",
    "preferredName": "Christoph Mylius Erben",
    "describedBy": {
      "valid": "2020-07-21T12:22:25Z",
      "license": "https://creativecommons.org/publicdomain/zero/1.0/",
      "@id": "https://hub.culturegraph.org/entityfacts/6146237-8"
    },
    "associatedCountry": [
      {
        "@id": "https://d-nb.info/standards/vocab/gnd/geographic-area-code#XA-DXDE",
        "preferredName": "Deutschland, Deutsches Reich"
      }
    ],
    "isA": [
      {
        "@id": "https://d-nb.info/gnd/4063004-3",
        "preferredName": "Verlag"
      }
    ],
    "sameAs": [
      {
        "@id": "https://d-nb.info/gnd/6146237-8/about",
        "collection": {
          "abbr": "DNB",
          "name": "Gemeinsame Normdatei (GND) im Katalog der Deutschen Nationalbibliothek",
          "publisher": "Deutsche Nationalbibliothek",
          "icon": "https://www.dnb.de/SiteGlobals/Frontend/DNBWeb/Images/favicon.png?__blob=normal&v=4"
        }
      },
      {
        "@id": "http://viaf.org/viaf/159016639",
        "collection": {
          "abbr": "VIAF",
          "name": "Virtual International Authority File (VIAF)",
          "publisher": "OCLC",
          "icon": "http://viaf.org/viaf/images/viaf.ico"
        }
      }
    ]
  },
  "1051036917": {
    "@context": "https://hub.culturegraph.org/entityfacts/context/v1/entityfacts.jsonld",
    "@type": "organisation",
    "@id": "https://d-nb.info/gnd/1051036917",
    "preferredName": "Salfeldische Druckerey",
    "describedBy": {
      "valid": "2020-07-21T12:22:27Z",
      "license": "https://creativecommons.org/publicdomain/zero/1.0/",
      "@id": "https://hub.culturegraph.org/entityfacts/1051036917"
    },
    "variantName": [
      "Salfeldische Druckerei",
      "Caractere Salfeldiano",
      "Chalcographia Salfeldiana",
      "Character Salfeldianus",
      "Charactere Salfeldiano",
      "Literis Salfeldianis",
      "Litteris Salfeldianis",
      "Literis Christophori Salfeldii Viduæ",
      "Literiae Salfeldianae",
      "Litteriae Salfeldianae",
      "Praelium Salfeldianum",
      "Prelum Salfeldianum",
      "Saalfeldische Schrifften",
      "Saalfeldische Schriften",
      "Salfeldische Schrifften",
      "Salfeldische Schriften",
      "Typis Academicis Salfeldianis",
      "Typis Salfeldianis",
      "Typi Academici Salfeldiani",
      "Typi Salfeldiani",
      "Typographeum Salfeldianum",
      "Typis Christophori Salfeldii",
      "Typis Christophori Salfeldii Vidvae"
    ],
    "relatedPerson": [
      {
        "@id": "https://d-nb.info/gnd/103753381X",
        "preferredName": "Christoph Salfeld"
      },
      {
        "@id": "https://d-nb.info/gnd/1037532015",
        "preferredName": "Marie Salfeld"
      },
      {
        "@id": "https://d-nb.info/gnd/120436329",
        "preferredName": "David Salfeld"
      },
      {
        "@id": "https://d-nb.info/gnd/1037505905",
        "preferredName": "Christoph Salfeld"
      },
      {
        "@id": "https://d-nb.info/gnd/103751128X",
        "preferredName": "Elisabeth Salfeld"
      },
      {
        "@id": "https://d-nb.info/gnd/1037524683",
        "preferredName": "Johann Andreas Salfeld"
      }
    ],
    "placeOfBusiness": [
      {
        "@id": "https://d-nb.info/gnd/4023025-9",
        "preferredName": "Halle (Saale)"
      }
    ],
    "associatedCountry": [
      {
        "@id": "https://d-nb.info/standards/vocab/gnd/geographic-area-code#XA-DXDE",
        "preferredName": "Deutschland, Deutsches Reich"
      },
      {
        "@id": "https://d-nb.info/standards/vocab/gnd/geographic-area-code#XA-DE",
        "preferredName": "Deutschland"
      }
    ],
    "isA": [
      {
        "@id": "https://d-nb.info/gnd/4133333-0",
        "preferredName": "Druckerei"
      }
    ],
    "successor": [
      {
        "@id": "https://d-nb.info/gnd/6146043-6",
        "preferredName": "Christoph Salfeld der Jüngere Erben"
      }
    ],
    "sameAs": [
      {
        "@id": "https://d-nb.info/gnd/1051036917/about",
        "collection": {
          "abbr": "DNB",
          "name": "Gemeinsame Normdatei (GND) im Katalog der Deutschen Nationalbibliothek",
          "publisher": "Deutsche Nationalbibliothek",
          "icon": "https://www.dnb.de/SiteGlobals/Frontend/DNBWeb/Images/favicon.png?__blob=normal&v=4"
        }
      },
      {
        "@id": "https://www.deutsche-digitale-bibliothek.de/organization/gnd/1051036917",
        "collection": {
          "abbr": "DDB",
          "name": "Deutsche Digitale Bibliothek",
          "publisher": "Deutsche Digitale Bibliothek",
          "icon": "https://www.deutsche-digitale-bibliothek.de/favicon.ico"
        }
      },
      {
        "@id": "http://id.loc.gov/rwo/agents/n2015059753",
        "collection": {
          "abbr": "LC",
          "name": "NACO Authority File",
          "publisher": "Library of Congress",
          "icon": "http://www.loc.gov/favicon.ico"
        }
      },
      {
        "@id": "http://viaf.org/viaf/308707937",
        "collection": {
          "abbr": "VIAF",
          "name": "Virtual International Authority File (VIAF)",
          "publisher": "OCLC",
          "icon": "http://viaf.org/viaf/images/viaf.ico"
        }
      }
    ]
  },
  "6146090-4": {
    "@context": "https://hub.culturegraph.org/entityfacts/context/v1/entityfacts.jsonld",
    "@type": "organisation",
    "@id": "https://d-nb.info/gnd/6146090-4",
    "preferredName": "Melchior Oelschlägel Erben (Halle (Saale))",
    "describedBy": {
      "valid": "2020-07-21T12:22:30Z",
      "license": "https://creativecommons.org/publicdomain/zero/1.0/",
      "@id": "https://hub.culturegraph.org/entityfacts/6146090-4"
    },
    "variantName": [
      "Melchior Oelschlegel Erben (Halle (Saale))",
      "Typis Oelschlegelianorum (Halle (Saale))",
      "Typis Haeredum Oelschlegelii (Halle (Saale))",
      "Typis Haeredum Oelschlegelianis (Halle (Saale))",
      "Oelschläglische Erben (Halle (Saale))",
      "Literis Oelschlegelianis (Halle (Saale))",
      "Literis Haered. Melchioris Oelschlegelii (Wittenberg)"
    ],
    "placeOfBusiness": [
      {
        "@id": "https://d-nb.info/gnd/4023025-9",
        "preferredName": "Halle (Saale)"
      }
    ],
    "associatedCountry": [
      {
        "@id": "https://d-nb.info/standards/vocab/gnd/geographic-area-code#XA-DXDE",
        "preferredName": "Deutschland, Deutsches Reich"
      }
    ],
    "isA": [
      {
        "@id": "https://d-nb.info/gnd/4133333-0",
        "preferredName": "Druckerei"
      }
    ],
    "sameAs": [
      {
        "@id": "https://d-nb.info/gnd/6146090-4/about",
        "collection": {
          "abbr": "DNB",
          "name": "Gemeinsame Normdatei (GND) im Katalog der Deutschen Nationalbibliothek",
          "publisher": "Deutsche Nationalbibliothek",
          "icon": "https://www.dnb.de/SiteGlobals/Frontend/DNBWeb/Images/favicon.png?__blob=normal&v=4"
        }
      },
      {
        "@id": "https://www.deutsche-digitale-bibliothek.de/organization/gnd/6146090-4",
        "collection": {
          "abbr": "DDB",
          "name": "Deutsche Digitale Bibliothek",
          "publisher": "Deutsche Digitale Bibliothek",
          "icon": "https://www.deutsche-digitale-bibliothek.de/favicon.ico"
        }
      },
      {
        "@id": "http://viaf.org/viaf/153177942",
        "collection": {
          "abbr": "VIAF",
          "name": "Virtual International Authority File (VIAF)",
          "publisher": "OCLC",
          "icon": "http://viaf.org/viaf/images/viaf.ico"
        }
      }
    ]
  },
  "1051037557": {
    "@context": "https://hub.culturegraph.org/entityfacts/context/v1/entityfacts.jsonld",
    "@type": "organisation",
    "@id": "https://d-nb.info/gnd/1051037557",
    "preferredName": "Christoph Salfeld der Ältere Erben",
    "describedBy": {
      "valid": "2020-07-21T12:22:42Z",
      "license": "https://creativecommons.org/publicdomain/zero/1.0/",
      "@id": "https://hub.culturegraph.org/entityfacts/1051037557"
    },
    "variantName": [
      "Christoph Salfeld I. Erben",
      "Christoph Salfelds Erben",
      "Christoff Salfelds Witbe und Erben",
      "Christoph Salfelds Witwe und Erben"
    ],
    "founder": [
      {
        "@id": "https://d-nb.info/gnd/103753381X",
        "preferredName": "Christoph Salfeld"
      }
    ],
    "relatedPerson": [
      {
        "@id": "https://d-nb.info/gnd/1037532015",
        "preferredName": "Marie Salfeld"
      },
      {
        "@id": "https://d-nb.info/gnd/120436329",
        "preferredName": "David Salfeld"
      },
      {
        "@id": "https://d-nb.info/gnd/1037505905",
        "preferredName": "Christoph Salfeld"
      },
      {
        "@id": "https://d-nb.info/gnd/1037524683",
        "preferredName": "Johann Andreas Salfeld"
      }
    ],
    "placeOfBusiness": [
      {
        "@id": "https://d-nb.info/gnd/4023025-9",
        "preferredName": "Halle (Saale)"
      }
    ],
    "associatedCountry": [
      {
        "@id": "https://d-nb.info/standards/vocab/gnd/geographic-area-code#XA-DXDE",
        "preferredName": "Deutschland, Deutsches Reich"
      }
    ],
    "isA": [
      {
        "@id": "https://d-nb.info/gnd/4133333-0",
        "preferredName": "Druckerei"
      }
    ],
    "biographicalOrHistoricalInformation": "Eigentumsverhältnisse unklar",
    "predecessor": [
      {
        "@id": "https://d-nb.info/gnd/1051036917",
        "preferredName": "Salfeldische Druckerey"
      }
    ],
    "sameAs": [
      {
        "@id": "https://d-nb.info/gnd/1051037557/about",
        "collection": {
          "abbr": "DNB",
          "name": "Gemeinsame Normdatei (GND) im Katalog der Deutschen Nationalbibliothek",
          "publisher": "Deutsche Nationalbibliothek",
          "icon": "https://www.dnb.de/SiteGlobals/Frontend/DNBWeb/Images/favicon.png?__blob=normal&v=4"
        }
      },
      {
        "@id": "http://viaf.org/viaf/308707972",
        "collection": {
          "abbr": "VIAF",
          "name": "Virtual International Authority File (VIAF)",
          "publisher": "OCLC",
          "icon": "http://viaf.org/viaf/images/viaf.ico"
        }
      }
    ]
  },
  "6146285-8": {
    "@context": "https://hub.culturegraph.org/entityfacts/context/v1/entityfacts.jsonld",
    "@type": "organisation",
    "@id": "https://d-nb.info/gnd/6146285-8",
    "preferredName": "Johann Fick Witwe und Erben",
    "describedBy": {
      "valid": "2020-07-21T12:22:48Z",
      "license": "https://creativecommons.org/publicdomain/zero/1.0/",
      "@id": "https://hub.culturegraph.org/entityfacts/6146285-8"
    },
    "variantName": [
      "Johann Fikius Witwe und Erben",
      "Johann Fickens Witwe und Erben",
      "Bibliopoleum Fikianum (Halle (Saale))"
    ],
    "placeOfBusiness": [
      {
        "@id": "https://d-nb.info/gnd/4023025-9",
        "preferredName": "Halle (Saale)"
      }
    ],
    "associatedCountry": [
      {
        "@id": "https://d-nb.info/standards/vocab/gnd/geographic-area-code#XA-DXDE",
        "preferredName": "Deutschland, Deutsches Reich"
      }
    ],
    "isA": [
      {
        "@id": "https://d-nb.info/gnd/4063004-3",
        "preferredName": "Verlag"
      }
    ],
    "sameAs": [
      {
        "@id": "https://d-nb.info/gnd/6146285-8/about",
        "collection": {
          "abbr": "DNB",
          "name": "Gemeinsame Normdatei (GND) im Katalog der Deutschen Nationalbibliothek",
          "publisher": "Deutsche Nationalbibliothek",
          "icon": "https://www.dnb.de/SiteGlobals/Frontend/DNBWeb/Images/favicon.png?__blob=normal&v=4"
        }
      },
      {
        "@id": "https://www.deutsche-digitale-bibliothek.de/organization/gnd/6146285-8",
        "collection": {
          "abbr": "DDB",
          "name": "Deutsche Digitale Bibliothek",
          "publisher": "Deutsche Digitale Bibliothek",
          "icon": "https://www.deutsche-digitale-bibliothek.de/favicon.ico"
        }
      },
      {
        "@id": "http://viaf.org/viaf/146153137",
        "collection": {
          "abbr": "VIAF",
          "name": "Virtual International Authority File (VIAF)",
          "publisher": "OCLC",
          "icon": "http://viaf.org/viaf/images/viaf.ico"
        }
      }
    ]
  },
  "6146138-6": {
    "@context": "https://hub.culturegraph.org/entityfacts/context/v1/entityfacts.jsonld",
    "@type": "organisation",
    "@id": "https://d-nb.info/gnd/6146138-6",
    "preferredName": "Henning Grosse IV. Erben",
    "describedBy": {
      "valid": "2020-07-21T12:22:50Z",
      "license": "https://creativecommons.org/publicdomain/zero/1.0/",
      "@id": "https://hub.culturegraph.org/entityfacts/6146138-6"
    },
    "variantName": [
      "Henningius Grossius Junior Erben",
      "Haered. Henningi Grosii",
      "Haeredes Henningi Grosii",
      "Apud Grossianos",
      "Grossiani",
      "Großischer Buchladen (Leipzig)"
    ],
    "dateOfEstablishment": [
      "1667"
    ],
    "dateOfTermination": [
      "1690"
    ],
    "placeOfBusiness": [
      {
        "@id": "https://d-nb.info/gnd/4035206-7",
        "preferredName": "Leipzig"
      }
    ],
    "associatedCountry": [
      {
        "@id": "https://d-nb.info/standards/vocab/gnd/geographic-area-code#XA-DXDE",
        "preferredName": "Deutschland, Deutsches Reich"
      }
    ],
    "isA": [
      {
        "@id": "https://d-nb.info/gnd/4063004-3",
        "preferredName": "Verlag"
      }
    ],
    "sameAs": [
      {
        "@id": "https://d-nb.info/gnd/6146138-6/about",
        "collection": {
          "abbr": "DNB",
          "name": "Gemeinsame Normdatei (GND) im Katalog der Deutschen Nationalbibliothek",
          "publisher": "Deutsche Nationalbibliothek",
          "icon": "https://www.dnb.de/SiteGlobals/Frontend/DNBWeb/Images/favicon.png?__blob=normal&v=4"
        }
      },
      {
        "@id": "https://www.deutsche-digitale-bibliothek.de/organization/gnd/6146138-6",
        "collection": {
          "abbr": "DDB",
          "name": "Deutsche Digitale Bibliothek",
          "publisher": "Deutsche Digitale Bibliothek",
          "icon": "https://www.deutsche-digitale-bibliothek.de/favicon.ico"
        }
      },
      {
        "@id": "http://viaf.org/viaf/125062947",
        "collection": {
          "abbr": "VIAF",
          "name": "Virtual International Authority File (VIAF)",
          "publisher": "OCLC",
          "icon": "http://viaf.org/viaf/images/viaf.ico"
        }
      }
    ]
  },
  "6146891-5": {
    "@context": "https://hub.culturegraph.org/entityfacts/context/v1/entityfacts.jsonld",
    "@type": "organisation",
    "@id": "https://d-nb.info/gnd/6146891-5",
    "preferredName": "Officina Wittigauiana",
    "describedBy": {
      "valid": "2020-07-21T12:22:59Z",
      "license": "https://creativecommons.org/publicdomain/zero/1.0/",
      "@id": "https://hub.culturegraph.org/entityfacts/6146891-5"
    },
    "variantName": [
      "Officina Wittigiana",
      "Officina Wittigaviana",
      "Johann Wittigau Schriften",
      "Wittigauische Schriften",
      "Wittigauische Schrifften",
      "Elementis Wittigianis",
      "Literis Wittigianis",
      "Literis Wittigauianis",
      "Literis Wittigavianis",
      "Praelum Wittigavianum",
      "Stannum Wittigavianum",
      "Stannum Wittigauianum",
      "Typis Wittigavianis",
      "Typis Wittigauianis"
    ],
    "placeOfBusiness": [
      {
        "@id": "https://d-nb.info/gnd/4035206-7",
        "preferredName": "Leipzig"
      }
    ],
    "associatedCountry": [
      {
        "@id": "https://d-nb.info/standards/vocab/gnd/geographic-area-code#XA-DXDE",
        "preferredName": "Deutschland, Deutsches Reich"
      }
    ],
    "isA": [
      {
        "@id": "https://d-nb.info/gnd/4133333-0",
        "preferredName": "Druckerei"
      }
    ],
    "sameAs": [
      {
        "@id": "https://d-nb.info/gnd/6146891-5/about",
        "collection": {
          "abbr": "DNB",
          "name": "Gemeinsame Normdatei (GND) im Katalog der Deutschen Nationalbibliothek",
          "publisher": "Deutsche Nationalbibliothek",
          "icon": "https://www.dnb.de/SiteGlobals/Frontend/DNBWeb/Images/favicon.png?__blob=normal&v=4"
        }
      },
      {
        "@id": "https://www.deutsche-digitale-bibliothek.de/organization/gnd/6146891-5",
        "collection": {
          "abbr": "DDB",
          "name": "Deutsche Digitale Bibliothek",
          "publisher": "Deutsche Digitale Bibliothek",
          "icon": "https://www.deutsche-digitale-bibliothek.de/favicon.ico"
        }
      },
      {
        "@id": "http://viaf.org/viaf/309560636",
        "collection": {
          "abbr": "VIAF",
          "name": "Virtual International Authority File (VIAF)",
          "publisher": "OCLC",
          "icon": "http://viaf.org/viaf/images/viaf.ico"
        }
      }
    ]
  },
  "6146469-7": {
    "@context": "https://hub.culturegraph.org/entityfacts/context/v1/entityfacts.jsonld",
    "@type": "organisation",
    "@id": "https://d-nb.info/gnd/6146469-7",
    "preferredName": "Michael Oelschlägel Erben (Halle (Saale))",
    "describedBy": {
      "valid": "2020-07-21T12:23:23Z",
      "license": "https://creativecommons.org/publicdomain/zero/1.0/",
      "@id": "https://hub.culturegraph.org/entityfacts/6146469-7"
    },
    "variantName": [
      "Michael Oelschlegel Erben (Halle (Saale))"
    ],
    "dateOfEstablishmentAndTermination": [
      "1626-1643"
    ],
    "placeOfBusiness": [
      {
        "@id": "https://d-nb.info/gnd/4023025-9",
        "preferredName": "Halle (Saale)"
      }
    ],
    "associatedCountry": [
      {
        "@id": "https://d-nb.info/standards/vocab/gnd/geographic-area-code#XA-DXDE",
        "preferredName": "Deutschland, Deutsches Reich"
      }
    ],
    "isA": [
      {
        "@id": "https://d-nb.info/gnd/4063004-3",
        "preferredName": "Verlag"
      }
    ],
    "sameAs": [
      {
        "@id": "https://d-nb.info/gnd/6146469-7/about",
        "collection": {
          "abbr": "DNB",
          "name": "Gemeinsame Normdatei (GND) im Katalog der Deutschen Nationalbibliothek",
          "publisher": "Deutsche Nationalbibliothek",
          "icon": "https://www.dnb.de/SiteGlobals/Frontend/DNBWeb/Images/favicon.png?__blob=normal&v=4"
        }
      },
      {
        "@id": "https://www.deutsche-digitale-bibliothek.de/organization/gnd/6146469-7",
        "collection": {
          "abbr": "DDB",
          "name": "Deutsche Digitale Bibliothek",
          "publisher": "Deutsche Digitale Bibliothek",
          "icon": "https://www.deutsche-digitale-bibliothek.de/favicon.ico"
        }
      },
      {
        "@id": "http://viaf.org/viaf/135608771",
        "collection": {
          "abbr": "VIAF",
          "name": "Virtual International Authority File (VIAF)",
          "publisher": "OCLC",
          "icon": "http://viaf.org/viaf/images/viaf.ico"
        }
      }
    ]
  },
  "6146104-0": {
    "@context": "https://hub.culturegraph.org/entityfacts/context/v1/entityfacts.jsonld",
    "@type": "organisation",
    "@id": "https://d-nb.info/gnd/6146104-0",
    "preferredName": "Henning Grosse II. Erben",
    "describedBy": {
      "valid": "2020-07-21T12:23:28Z",
      "license": "https://creativecommons.org/publicdomain/zero/1.0/",
      "@id": "https://hub.culturegraph.org/entityfacts/6146104-0"
    },
    "variantName": [
      "Henningus Grosius II. Erben",
      "Henningius Grosius II. Erben",
      "Regina Maria Grosse",
      "Haeredes Henningi Grosii Jun.",
      "Haeredes Henningii Grosii Iunioris"
    ],
    "dateOfEstablishment": [
      "1622"
    ],
    "dateOfTermination": [
      "1633"
    ],
    "relatedPerson": [
      {
        "@id": "https://d-nb.info/gnd/129309702",
        "preferredName": "Henning Grosse"
      }
    ],
    "placeOfBusiness": [
      {
        "@id": "https://d-nb.info/gnd/4035206-7",
        "preferredName": "Leipzig"
      }
    ],
    "associatedCountry": [
      {
        "@id": "https://d-nb.info/standards/vocab/gnd/geographic-area-code#XA-DXDE",
        "preferredName": "Deutschland, Deutsches Reich"
      }
    ],
    "isA": [
      {
        "@id": "https://d-nb.info/gnd/4063004-3",
        "preferredName": "Verlag"
      }
    ],
    "sameAs": [
      {
        "@id": "https://d-nb.info/gnd/6146104-0/about",
        "collection": {
          "abbr": "DNB",
          "name": "Gemeinsame Normdatei (GND) im Katalog der Deutschen Nationalbibliothek",
          "publisher": "Deutsche Nationalbibliothek",
          "icon": "https://www.dnb.de/SiteGlobals/Frontend/DNBWeb/Images/favicon.png?__blob=normal&v=4"
        }
      },
      {
        "@id": "https://www.deutsche-digitale-bibliothek.de/organization/gnd/6146104-0",
        "collection": {
          "abbr": "DDB",
          "name": "Deutsche Digitale Bibliothek",
          "publisher": "Deutsche Digitale Bibliothek",
          "icon": "https://www.deutsche-digitale-bibliothek.de/favicon.ico"
        }
      },
      {
        "@id": "http://viaf.org/viaf/159016694",
        "collection": {
          "abbr": "VIAF",
          "name": "Virtual International Authority File (VIAF)",
          "publisher": "OCLC",
          "icon": "http://viaf.org/viaf/images/viaf.ico"
        }
      }
    ]
  }
}