"ppn","vd18_nr","type","printer","printer_gnd","publisher","place","date","title"
"009334955","90156455","Obv","","","Renger","[S.l.]|||Halle, S","1701","Das jetzt lebende Leipzig"
"023923342","90292979","Obv","","","","[Halle]","1702","Der curieuse und politische Staats-Mercurius"
"023924357","90295129","Obv","","","Wahrmund [i.e. Grosschuff]","Freyburg [i.e. Leipzig]","1704","Der neubestellte Agent von Haus aus, mit allerhand curieusen Missiven, Brieffen, Memoralien, Staffeten, Correspondencen und Commissionen, nach Erforderung der heutigen Staats- und gelehrten Welt"
"009411259","9022230X","Obv","","","Renger","Franckfurt||Leipzig||[Halle]","1709","Neue Bibliothec Oder Nachricht und Urtheile von neuen Büchern Und allerhand zur Gelehrsamkeit dienenden Sachen"
"008473145","1400013X","Obv","","","","Halle","1710","Des Erbaulichen Zeit-Vertreibers erste Ausflucht, welcher von allerhand nützlichen und curiösen Sachen auf eine ergötzende, freye und geziemende Art raisonniret"
"024417866","90291735","Obv","","","Waysenhaus","Halle, S","1713","Der Königl. dänischen Missionarien aus Ost-Indien eingesandte ausführliche Berichte von dem Werck ihres Amts unter den Heyden"
"024680257","9029257X","Obv","","","Renger","Halle","1715","Gundlingiana"
"023926139","90311116","Obv","","","Renger","Halle, Magdeb","1715","Neue Acerra philologica oder Gründliche Nachrichten aus der Philologie, und denen römischen und griechischen Antiquitaeten"
"023922087","90290089","Obv","","","Renger","Halle","1715","Acta philosophorum, das ist gründl. Nachrichten aus der historia philosophica"
"023917261","90278933","Obv","","","Zeitler","Halle||Leipzig","1715","Summarischer Nachrichten von auserlesenen, mehrenteils alten in der Thomasischen Bibliotheque vorhandenen Büchern ... Stück"
"009435654","90237498","Obv","","","Renger","Franckfurt||Leipzig||[Halle]","1717","Neue Bibliothec Oder Nachricht und Urtheile von neuen Büchern Und allerhand zur Gelehrsamkeit dienenden Sachen"
"023889810","c(""11157836"", ""90317254"")","Obv","","","Campen","Leipzig||Gardeleben","1718","Continuation der gründlichen Nachricht von denen Journalen, Ephemeridibus, monatlichen Extracten, so in frantzöischer, lateinischer und deutscher Sprache von Anno ... biß ... ans Licht kommen, allen Liebhabern der Journale ... mitgetheilet von H. P. L. M"
"009445188","90243897","Obv","","","Neue Buchandlung","Halle im Magdeburgischen","1718","Vermischte Bibliothec Oder: Zulängliche Nachrichten und Unpartheyische Gutachten Von allerhand mehrentheils neuen Büchern und andern gelehrten Materien"
"009521348","90299469","Obv","","","Renger","Halle","1720","Ernsthaffte aber doch muntere und vernünfftige Thomasische Gedanken und Erinnerungen über allerhand außerlesene juristische Händel"
"009430253","90234146","Obv","","","Martini","Leipzig","1723","Das gesamte itzt-lebende Geistliche Ministerium, Im Gantzen Churfürstenthum Sachsen und incorporirten Landen, auch Ober- und Nieder-Laußnitz, Oder Das blühende Andencken Aller in Sachsen und Laußnitz Auch einigen andern angräntzenden Ländern Lebenden Evangelisch-Lutherischen Prediger, Wie solche im Jahre ... In Städten und aufm Lande floriret"
"026265230","90293770","Obv","","","Braun|||Spörl","Franckfurt||Leipzig|||Halle","1725","Die vernünftigen Tadlerinnen"
"023926090","90311086","Obv","","","Wor & Böttger","Amstelodami||Duisburgi","1732","Miscellanea Duisburgensia edita, inedita, vetera, nova, theologica historica, philologica ad incrementum rei literariae omnis"
"00937325X","90196279","Obv","","","","Sarden|||Philadelphia [i.e. Berleburg]","1733","Geistliche Fama"
"024332437","90370066","Obv","","","Waysenhaus","Halle","1735","Bartholomäus Ziegenbalgs ausführlicher Bericht"
"009451501","90247973","Obv","","","Piscator","Hamburg","1738","Der vernünftige Christ"
"009373861","90196708","Obv","","","Breitkopf","Leipzig","1739","Der Deutschen Gesellschaft in Leipzig Nachrichten und Anmerkungen welche die Sprache, Beredsamkeit und Dichtkunst der Deutschen betreffen"
"023919248","90283457","Obv","","","Haude & Spener","Berlin","1740","Berlinische Nachrichten von Staats- und gelehrten Sachen"
"009423761","90229681","Obv","","","Hemmerde|||Fritsch|||Schuster|||Krug","Halle|||Halle||Leipzig","1741","Der Prüfenden Gesellschafft zu Halle Fortgesetzte, zur Gelehrsamkeit gehörige, Bemühungen"
"023924217","90294815","Obv","","","E. Schneider|||Grundert","Halle, S||Leipzig|||Halle, S","1743","Johann Peter von Ludewigs gelehrte Anzeigen, in alle Wissenschaften, so wol geistlicher als weltlicher, alter und neuer Sachen, welche vormals denen wöchentlichen hallischen Anzeigen einverleibet worden, nunmehro aber zusammen gedrucket und mit einem vollständigen Register versehen"
"023919787","90284550","Obv","","","Gebauer","Halle","1748","Der Gesellige"
"023917059","9027850X","Obv","","","Gebauer","Halle","1748","Nachrichten von einer hallischen Bibliothek"
"024413631","90276965","Obv","","","Walther|||Hochfürstliches Zeitungs-Comptoir","Erlangen|||Bayreuth","1749","Erlangische gelehrte Anmerkungen und Nachrichten"
"00939169X","9020882X","Obv","","","Petersell","Torgau","1749","Torgauische Merckwürdigkeiten und Nachrichten"
"024413720","90277325","Obv","","","Jacobi","Leipzig","1750","Leipziger Sammlungen von allerhand zum land- und stadt-wirthschafftlichen Policey-, Finanz- und Cammer-Wesen dienlichen Nachrichten, Anmerckungen, Begebenheiten, Versuchen, Vorschlägen, neuen und alten Anstalten, Erfindungen, Vortheilen, Fehlern, Künsten, Wissenschaften und Schriften"
"024414913","90281616","Obv","","","Gebauer","Halle","1751","Der Mensch"
"023921277","90288068","Obv","","","Adreßcomptoir|||Richter","Dresden","1751","Dresdner gelehrte Anzeigen"
"009451544","9024799X","Obv","","","","[Leipzig]","1751","Der Leipziger Zuschauer"
"024692999","90396103","Obv","","","Gebauer","Halle, S","1752","Altes und Neues von Schulsachen"
"024412155","90155556","Obv","","","","[S.l.]","1752","Adres-Calender, der sämtlichen Königl. Preuß. Lande und Provinzien"
"023922923","90291824","Obv","","","Gebauer","Halle","1752","Siegm. Jac. Baumgartens Nachrichten von merkwürdigen Büchern"
"006390307","11095040","Obv","","","Brandt","Hamburg","1753","Hamburgische Beyträge zu den Werken des Witzes und der Sittenlehre"
"024687219","90357663","Obv","","","","Halle||Leipzig","1755","Neues Leipziger Allerley der merkwuerdigsten Begebenheiten unserer Zeit"
"009520783","90299132","Obv","","","Renger","Halle, S","1755","Hallische Beyträge zu der juristischen Gelehrten-Historie"
"006616941","11253703","Obv","","","Stoll","Stuttgart","1756","Sammlung aller Magister-Promotionen, welche zu Tübingen ... geschehen, darinnen nebst dem Vor- und Zu-Namen das Vaterland, die Aemter, und andere dergleichen Umstände der vorkommenden Personen aus vielen bewährten Urkunden zuverläßig angemercket werden"
"026265141","90290941","Obv","","","Gebauer","Halle","1757","Das Reich der Natur und der Sitten"
"023923512","90293347","Obv","","","","Frankfurt||Leipzig","1757","Teutsche Kriegs-Canzley"
"006075266","10887644","Obv","","","","Frankfurt, M||Leipzig","1757","Sammlung der neuesten Staats-Schrifften zum Behuf der Historie des jetzigen Krieges in Teutschland"
"024458953","90379985","Obv","","","Curts","Halle","1758","Daniel Gottfried Schrebers ... Sammlung verschiedener Schriften, welche in die öconomischen, Policey- und Cameral-, auch andere verwandte Wissenschaften einschlagen"
"023923008","90292146","Obv","","","Hemmerde","Halle","1758","Zuverlässige Nachrichten von der Königlich-Preußischen Armee"
"023919884","90284763","Obv","","","Gebauer","Halle","1763","Der Glückselige"
"009449302","90246462","Obv","","","Bock","Hamburg","1764","Hamburgisches Journal"
"023922168","90290275","Obv","","","Crusius|||Curts","Leipzig|||Halle","1765","Daniel Gottfried Schrebers ... neue Cameralschriften"
"006738451","11348275","Obv","","","An der Pleisse","Leipzig","1765","Der Zuschauer von Leipzig"
"024418579","90294181","Obv","","","","Eisenach||Göttingen","1766","Vermischte Nachrichten und Anmerkungen zur Erläuterung und Ergänzung der sächßischen besonders aber der Eisenachischen Geschichte"
"026265397","90287827","Obv","","","Gebauer","Halle","1767","Allgemeine historische Bibliothek"
"024417823","9029159X","Obv","","","Curt","Halle","1767","Der Weise"
"024416045","90285859","Obv","","","Curt|||Ritter|||Buchenröder|||Buchenröder und Ritter","Halle|||Hamburg","1767","Magazin für die neue Historie und Geographie"
"023920157","9028545X","Obv","","","","Cleves","1767","Courier du Bas-Rhin"
"023918764","90282418","Obv","","","Gebauer","Halle","1767","Allgemeines historisches Magazin"
"023918551","90282000","Obv","","","Dodsley","[S.l.]|||Frankfurt||Leipzig|||London||Halle","1768","Bibliothek der elenden Scribenten"
"024446025","90366468","Obv","","","Trampe","Halle","1769","Brittisches Theologisches Magazin"
"023890347","11297352","Obv","","","Holle","Leipzig","1769","Pragmatische Makulatur"
"006673260","11297352","Obv","","","Holle","Leipzig","1769","Pragmatische Makulatur"
"02626532X","90277236","Obv","","","Mezler","Stutgart","1770","Allgemeiner öconomischer oder Landwirthschafts-Kalender"
"023919183","90283317","Obv","","","Hurter","Frankfurt, M||Leipzig|||Leipzig||Halle|||Schaffhausen","1770","Der Christ am Sonntage"
"009304614","90123077","Obv","","","Kümmel","Halle","1770","Journal für Prediger"
"026265311","90295420","Obv","","","Mezler","Stuttgart","1771","Allgemeiner Landwirthschafts-Kalender"
"026265435","90277686","Obv","","","Vandenhoeck","Göttingen","1772","Historisches Journal von Mitgliedern des Königlichen Historischen Instituts zu Göttingen"
"026265303","90296982","Obv","","","Mezler","Stuttgart","1772","Nützlicher und getreuer Unterricht für den Land- und Bauersmann"
"023918349","90281470","Obv","","","Gebauer","Halle","1772","Magazin der deutschen Critik"
"00933727X","9017139X","Obv","","","Strauß","Jena","1772","Historisch-poetischer Calender"
"009330623","90142020","Obv","","","Gebauer","Halle","1773","Der Andächtige"
"026265419","90279735","Obv","","","Gebauer","Halle","1774","Fortgesetzte Betrachtungen über die neuesten historischen Schriften"
"023921900","90289706","Obv","","","Trampe","Halle","1774","Beyträge zu Beförderung der Naturkunde"
"023917822","90280326","Obv","","","Gebauer","Halle","1774","Die Akademie der Grazien"
"009304002","90122364","Obv","","","Gebauer","Halle","1774","Der Naturforscher"
"023921749","90289242","Obv","","","Gebauer","Halle","1775","Der Geschichtforscher"
"024417459","90290305","Obv","","","Waisenhaus","Halle","1776","Neuere Geschichte der evangelischen Missionsanstalten zu Bekehrung der Heiden in Ost-Indien"
"023919922","90284828","Obv","","","Hendel","Halle, S","1777","Magazin für Frauenzimmer"
"025760580","90287185","Obv","","","","Hanau","1778","Nomenclatur und Beschreibung der Insecten in der Grafschaft Hanau-Münzenberg wie auch der Wetterau und der angränzenden Nachbarschaft dies- und jenseits des Mains"
"023922257","90290445","Obv","","","Hendel|||Hoffmann|||Buchhandlung d. Gelehrten","Halle|||Weimar|||Dessau||Leipzig","1780","Magazin der italienischen Litteratur und Künste"
"023921919","90289722","Obv","","","Hendel","Halle","1780","Vermischte Aufsätze zur Beförderung der Litteratur und der Sitten"
"00933565X","90160169","Obv","","","Trampe","Halle","1780","Erzehlungen aus der würklichen Welt"
"024685720","90343182","Obv","","","Crusius","Halle, S","1781","Der Erzieher"
"024421634","90311191","Obv","","","","Halle","1781","Neueste Kritik über Wien"
"023920335","90285964","Obv","","","Gebauer","Halle","1781","Magazin für die Erziehung und Schulen besonders in den Preußischen Staaten"
"009519912","90298667","Obv","","","Renger","Halle","1781","Sammlung auserlesener Abhandlungen aus dem Lehnrechte"
"024419117","9029615X","Obv","","","Dost","Halle","1782","Briefe über die Bibel im Volkston"
"023921994","90289862","Obv","","","Hendel","Halle","1782","Magazin für Pharmazie, Botanik und Materia Medica"
"024446009","9036645X","Obv","","","Gebauer","Halle","1783","Historische Miscellaneen"
"009337296","90171403","Obv","","","Dürr","Wittenberg","1783","Wittenbergisches Magazin"
"00933145X","90143353","Obv","","","Hendel","Halle","1783","Magazin der Alterthümer, oder Abbildungen von den vornehmsten geschnittenen Steinen, Büsten, Statuen, Grouppen, erhabenen und vertieften Arbeiten, Gemählden, Vasen und anderen Geräthschaften"
"025501437","90293797","Obv","","","Haude & Spener","Berlin","1784","Historisch-genealogischer Calender oder Jahrbuch der merkwürdigsten neuen Weltbegebenheiten"
"023917865","90280385","Obv","","","Traupe","Halle","1784","Physicalische Zeitung"
"023923245","90292804","Obv","","","Hendel","Halle","1785","Neue litterarische Nachrichten für Ärzte, Wundärzte und Naturforscher"
"023918144","90281012","Obv","","","Verl. d. Waisenhauses","Halle","1785","Neues geographisches Magazin"
"00953167X","90307836","Obv","","","Gebauer","Halle","1785","Medicinischer Briefwechsel"
"024608831","11475072","Obv","","","","[Halle, S.]","1786","Einnahme und Ausgabe bey der Stadt-Almosencasse zu Halle"
"024415138","90282604","Obv","","","","Berlin||Nürnberg|||Halle, S","1786","Monatsschrift für Damen"
"023917016","90278402","Obv","","","Heller","Halle, Saale","1786","Flora"
"009519637","90298500","Obv","","","Hendel","Halle","1787","Miscellaneen zum Lehnrechte"
"009303820","90283538","Obv","","","Curt|||Cramer","Halle|||Cassel","1787","Magazin für alte, besonders morgenländische und biblische Litteratur"
"023918640","90282213","Obv","","","Gebauer","Halle","1788","Philosophisches Magazin"
"009372962","90196120","Obv","","","Craz","Freyberg","1788","Bergmännisches Journal"
"009304339","90282213","Obv","","","Gebauer","Halle","1788","Philosophisches Magazin"
"023920084","90285271","Obv","","","","Halle","1789","Magazin für die Mineralogie und mineralogische Technologie"
"009519416","9029839X","Obv","","","Zeitung","Halle, S","1789","Allgemeine staatswissenschaftliche und juristische Literatur-Zeitung"
"026543699","90284615","Obv","","","Barth","Leipzig","1790","Journal der Physik"
"024415618","90284615","Obv","","","Barth","Leipzig","1790","Journal der Physik"
"024416932","90288882","Obv","","","Gebauer|||Gebauer [[1794]]|||Perthes","Eisenach||Halle|||Gotha||Halle|||Gotha","1792","Der Mineraloge, oder Compendiöse Bibliothek alles Wissenswürdigen aus dem Gebiete der Mineralogie"
"023920033","90285131","Obv","","","Francke","Halle","1792","Museum für das weibliche Geschlecht"
"009451528","90247981","Obv","","","Unger","Berlin","1792","Mythologischer Almanach für Damen"
"024416185","90286448","Obv","","","Dieterich","Göttingen","1793","Revolutions-Almanach"
"009389229","90207114","Obv","","","Hendel","Halle","1793","Der westphälisch-ökonomischen Societät zu Hamm, vermischte Abhandlungen, zur Beförderung der Oekonomie, der Fabriken und Manufakturen, der Handlung, der Künste und Gewerbe"
"009373888","90196716","Obv","","","Müller","Leipzig","1793","Italienische medicinisch-chirurgische Bibliothek oder Uebersetzungen und Auszüge aus den neuern Schriften italienischer Aerzte und Wundärzte"
"024449229","9036998X","Obv","","","Renger","Halle","1794","Auswahl der besten ausländischen geographischen und statistischen Nachrichten zur Aufklärung der Völker- und Länderkunde"
"024438960","90340183","Obv","","","","Halle","1794","Beiträge zur Geschichte der Medicin"
"023924934","90296281","Obv","","","Hammerich","Altona","1794","Der Genius der Zeit"
"023924446","90295358","Obv","","","Eßlinger","Frankfurt, M","1794","Magazin der neuesten merkwürdigen Kriegsbegebenheiten"
"023924322","90295064","Obv","","","Kleefeld","Halle||Leipzig","1795","Annalen der Philosophie und des philosophischen Geistes"
"023921358","9028819X","Obv","","","Gabler|||Neuprivilegierte Hof-Buch|||Michaelis","Jena||Leipzig|||Neu-Strelitz","1795","Philosophisches Journal einer Gesellschaft teutscher Gelehrten"
"00951922X","90298284","Obv","","","Verl. d. Waisenhauses|||Nauck|||Voß","Halle|||Berlin","1795","Beiträge zur Kenntniß der Justizverfassung und juristischen Literatur in den preussischen Staaten"
"009372946","90196112","Obv","","","Craz","Freyberg","1795","Neues bergmännisches Journal"
"024415006","90282086","Obv","","","Gleditsch|||Voß|||Koch|||Hempel|||Niemann","Leipzig","1796","Erholungen"
"023923830","90294041","Obv","","","","Halle","1796","Archiv für die Physiologie"
"009373276","90196287","Obv","","","Korn","Breslau","1796","Der Torso"
"024686069","90345401","Obv","","","[Renger]","[Halle]","1797","Der Kosmopolit"
"024685941","90345096","Obv","","","Renger","Halle","1797","Der Kosmopolit"
"00933288X","90148509","Obv","","","Ritter","Lübben","1797","Niederlausitzsches Addreßverzeichniß"
"009303782","90122135","Obv","","","Verl. d. Hof-, Buch- u. Kunsth|||Verl. der Industrie-Comptoir|||Neue Societäts-Buch-u. Kunsth","Rudolstadt|||Weimar|||Halle","1798","London und Paris"
"023922133","90290224","Obv","","","Verl. d. Waisenhauses","Halle","1799","Neue Beiträge zur Kenntniß der Justizverfassung und juristischen Literatur in den preussischen Staaten"
"009518924","90298128","Obv","","","Schwetschke & Sohn","Halle [u.a.]","1799","Archiv des Criminalrechts"
"009518878","90298098","Obv","","","Curt","Halle||Leipzig","1799","Juristische Literaturzeitung"
"009518835","90298071","Obv","","","Curt","Halle [u.a.]","1799","Juristische Literaturzeitung"
"024414255","90279344","Obv","","","Renger","Halle","1800","Materialien zur wissenschaftlichen Erklärung der neuesten allgemeinen preussischen Landesgesetze"
"02392053X","90286375","Obv","","","","Halle","1800","Archiv für die thierische Chemie"
"00952150X","90299574","Obv","","","Franke","Halle","1800","Magazin für die Gerechtsame des Adels und der Rittergüter in Deutschland"
"009378294","90200020","Obv","","","Universitäts- und Landesbibliothek Sachsen-Anhalt|||Niedersächsische Staats- und Universitätsbibliothek","Halle, Saale|||Göttingen","2012","Verbesserter Schreib- und Comtoir-Calender, Auf das Jahr Christi ..."
"024960837","90434447","Obv","","","ULB","Halle, Saale","2015","Nachrichten von dem Zustande der Wissenschaften und Künste in den königlich dänischen Reichen und Ländern"
"025597388","90537416","Obv","","","ULB","Halle, Saale","2016","Vollständiger Haushaltungs-, Garten- und Geschichts-Kalender"
"025597116","90537408","Obv","","","ULB","Halle, Saale","2016","Haußhaltungs-Calender"
"025597043","9052974X","Obv","","","ULB","Halle, Saale","2016","Verbesserter Haußhaltungs-Calender"
"025594435","90529774","Obv","","","ULB","Halle, Saale","2016","Tägliches Taschenbuch für alle Stände"
"025594303","90509374","Obv","","","ULB","Halle, Saale","2016","Anhalt-Dessauischer Kalender"
"025594109","90529766","Obv","","","ULB","Halle, Saale","2016","Cippi Gorlicenses oder das Gedächtniß der gelehrten und geehrten Görlitzer"
"025593676","90509390","Obv","","","ULB","Halle, Saale","2016","Adress-Verzeichnis"
"025593536","90509412","Obv","","","ULB","Halle, Saale","2016","Addresse-Verzeichnis einer Churfürstl. Sächßl. Hohen Landes-Regierung und sämtlichen dabey angestellten Personalis"
"025579630","90278712","Obv","","","ULB","Halle, Saale","2016","Altes und Neues aus dem Schatz theologischer Wissenschaften"
"025531697","90519957","Obv","","","ULB","Halle, Saale|||Dresden","2016","Bericht über des Waysen-Haußes in Dreßden auf das ...ste Jahr geschlossenen Bestand"
"02553159X","90519949","Obv","","","ULB","Halle, Saale|||Dresden","2016","Bericht von dem Zustande des Waysen-Hauses zu Dreßden"
"025531530","90519973","Obv","","","ULB","Halle, Saale|||Dresden","2016","Bericht von dem Waisenhause zu Dresden"
"025531344","90519930","Obv","","","ULB|||bey Johann Heinrich Schubothe","Halle, Saale|||Kopenhagen||Leipzig","2016","Medicinisch-chirurgisches Journal"
"025531255","11319313","Obv","","","ULB","Halle, Saale","2016","Jährlicher Umbgang derer allhiesigen Waysen-Kindere"
"025531212","90509382","Obv","","","ULB","Halle, Saale","2016","Medicinisches Journal"
"025530836","90509404","Obv","","","ULB","Halle, Saale","2016","Verlohrne Blätter zur Unterhaltung des Witzes und Verstandes"
"025529897","90509366","Obv","","","ULB","Halle, Saale","2016","Adreßverzeichniß über das Stift Meißen und die zu demselben gehörigen Städte Wurzen und Mügeln, auch Rittergüther und Pfarrkirchdörfer"
"025511467","90362705","Obv","","","ULB","Halle, Saale","2016","Medicinische Litteratur"
"025511459","90515862","Obv","","","ULB|||Sächs. Landesbibliothek - Staats- u. Universitätsbibliothek","Halle, Saale|||Dresden","2016","Nachricht wieviel arme Kinder und andere Personen in dem Waysen-Hause zu Dresden voritzo zu erhalten und mit allem Bedürffnüs zu versorgen seyn"
"025507117","90513355","Obv","","","ULB","Halle, Saale","2016","Königlich-Preußischer und Chur-Brandenburgischer Geschichts-Kalender"
"025359843","90505484","Obv","","","ULB","Halle, Saale","2016","Bibliothek der practischen Heilkunde"
"025359398","90505794","Obv","","","ULB","Halle, Saale","2016","Der Romanenfreund"
"025352377","90392809","Obv","","","ULB","Halle, Saale","2016","Ökonomisch-veterinärische Hefte von der Zucht, Wartung und Stallung der vorzüglichsten Haus- und Nutzthiere"
"025352210","90503562","Obv","","","ULB","Halle, Saale","2016","Neue theologische Annalen und theologische Nachrichten"
"025352083","90503554","Obv","","","ULB","Halle, Saale","2016","Kurze Nachricht aus dem Kirchen-Buche der Kirche zu S. Iohannes in Deserto bey der Churfürstl. Sächs. Land-Schule zu Pforte"
"025344560","90501136","Obv","","","ULB","Halle, Saale","2016","Taschenbuch für Freunde und Liebhaber der allgemeinen Weltkunde"
"02525460X","9046365X","Obv","","","ULB","Halle, Saale","2016","Sächsische Provinzialblätter"
"025254596","90484142","Obv","","","ULB","Halle, Saale","2016","Sächsische Provinzialblätter"
"025249657","90477944","Obv","","","ULB","Halle, Saale","2016","Kritische Bibliothek der schönen Wissenschaften"
"025247069","90478215","Obv","","","ULB","Halle, Saale","2016","Amusemens litteraires ou correspondance politique, historique, philosophique, critique, et galante"
"025247034","90478223","Obv","","","ULB","Halle, Saale","2016","Compendiöse Bibliothek der gemeinnützigsten Kenntnisse für alle Stände"
"025247018","90477944","Obv","","","ULB","Halle, Saale","2016","Kritische Bibliothek der schönen Wissenschaften"
"025246011","9028447X","Obv","","","ULB","Halle, Saale","2016","Klio"
"025245740","90476824","Obv","","","ULB","Halle, Saale","2016","Prognosticon"
"025245732","90476824","Obv","","","ULB","Halle, Saale","2016","Verbesserter Schwartzburgischer Calender"
"025244434","90477197","Obv","","","Universitätsbibliothek|||ULB","Augsburg|||Halle, Saale","2016","Meßgeschenk zur belehrenden Unterhaltung für Liebhaber der Pferde"
"025227394","90292251","Obv","","","Staatsbibliothek zu Berlin - Preußischer Kulturbesitz|||Sächs. Landesbibliothek - Staats- u. Universitätsbibliothek|||Universitätsbibliothek","Berlin|||Dresden|||Freiberg","2016","Nova acta Academiae Caesareae Leopoldino-Carolinae Germanicae Naturae Curiosorum"
"025216171","90297059","Obv","","","ULB|||Staatsbibliothek zu Berlin - Preußischer Kulturbesitz","Halle, Saale|||Berlin","2016","Erlangische gelehrte Anmerkungen und Nachrichten"
"024986682","10749381","Obv","","","ULB|||Staatsbibliothek zu Berlin - Preußischer Kulturbesitz","Halle, Saale|||Berlin","2016","D. Joh. Heinrich Callenbergs der Theol. u. Phil. Prof. P. Ord. Nachricht Von einem Versuch Die verlassene Muhammedaner Zur heilsamen Erkäntnis Christi anzuleiten"
"024979368","90451171","Obv","","","ULB","Halle, Saale","2016","Erfurtische gelehrte Nachrichten"
"024979341","90451155","Obv","","","ULB","Halle, Saale","2016","Hallische gelehrte Zeitungen"
"024978922","9045040X","Obv","","","ULB|||Niedersächsische Staats- und Universitätsbibliothek","Halle, Saale|||Göttingen","2016","Altonaische gelehrte Zeitungen"
"024930555","90290038","Obv","","","ULB","Halle, Saale","2016","Frankfurter gelehrte Anzeigen"
"026069849","90553675","Obv","","","Universitäts- und Landesbibliothek Sachsen-Anhalt|||Nißchen","Halle, Saale|||Pirna","2017","Pirnaischer Chronicken und Historien Calender"
"025836951","90593561","Obv","","","ULB","Halle, Saale","2017","Verzeichniß derer in dem ... Jahre ergangenen Edicte, Patente, Mandate, Rescripte, und Haupt-Verordnungen ec"
"025742035","10735100","Obv","","","ULB","Halle, Saale","2017","Elias Friedrich Schmersahls zuverlässige Nachrichten von jüngstverstorbenen Gelehrten"
"025684507","90553667","Obv","","","ULB","Halle, Saale","2017","Summarische Anzeige derer Bemühungen und Anstalten der gnädigst confirmirten Churfürstl. Sächßl. physikalisch-ökonomischen Bienen-Gesellschaft in Ober-Lausitz"
"025684493","90553659","Obv","","","ULB","Halle, Saale","2017","Geschichte der Churfürstl. Sächs. Bienengesellschaft in Oberlausitz betreffende Sachen"
"025684477","90553640","Obv","","","ULB","Halle, Saale","2017","Summarische Haupt-Anzeige von denen disjährigen Bemühungen und Anstalten der gnädigst confirmirten physikalisch-ökonomischen Bienen-Gesellschaft in Ober-Lausitz"
"025684442","90553632","Obv","","","ULB","Halle, Saale","2017","Nachricht von denen disjährigen Bemühungen der physicalisch-öconomischen Bienen-Gesellschaft in Ober-Lausitz"
"025684426","1087433X","Obv","","","ULB","Halle, Saale","2017","Nahmen und Bemühungen der Physikal. Oeconomischen Bienen-Gesellschaft in Ober-Lausitz"
"026614979","1128188X","Obv","","","Universitäts- und Landesbibliothek Sachsen-Anhalt","Halle, Saale","2018","Predigtentwürfe über die gewöhnlichen Evangelia auf alle Sonn- und Festtage des Jahres, in Sturmischer Manier, ausgezogen aus den völlig ausgearbeiteten Predigtsammlungen der vorzüglichsten teutschen Kanzelredner"
"026597187","90741978","Obv","","","Universitäts- und Landesbibliothek Sachsen-Anhalt","Halle, Saale","2018","Der Wahrsager, welcher in allerley lustigen und anmuthigen Anmerckungen und Erläuterungen die menschlichen Handlungen so vorstellet, wie sie täglich vor sich gehen"
"026571706","90732413","Obv","","","Staatsbibliothek zu Berlin","Berlin","2018","George Friedrich Meiers philosophische Betrachtungen über die christlichen Religionen"
"026566842","90730208","Obv","","","Universitäts- und Landesbibliothek Sachsen-Anhalt","Halle, Saale|||Leipzig","2018","Vollständige Register der Unschuldigen Nachrichten wie auch derselben Supplementa und die Theologischen Annales"
"026545527","90721128","Obv","","","ULB","Halle, Saale","2018","Ausführlicher Bericht über des Waysen-Hauses zu Dreßden Bestand"
"026545195","11229179","Obv","","","Staatsbibliothek zu Berlin - Preußischer Kulturbesitz","Berlin","2018","Der Freymaurer, oder Compendiöse Bibliothek alles Wissenswürdigen über geheime Gesellschaften"
"026543567","90720377","Obv","","","Universitätsbibliothek","Rostock","2018","Joh. Heinrich Callenbergs Relation von einer weitern Bemühung, Jesum Christum als den Heyland des menschlichen Geschlechts dem jüdischen Volck bekannt zu machen"
"02641032X","90669959","Obv","","","Universitäts- und Landesbibliothek Sachsen-Anhalt","Halle, Saale","2018","Phantasiestücke in Prose und Versen"
"026310961","90686446","Obv","","","Universitäts- und Landesbibliothek Sachsen-Anhalt","Halle, Saale","2018","Poetischer Neuigkeiten, ... Stück"
"026183692","90553683","Obv","","","Universitäts- und Landesbibliothek Sachsen-Anhalt","Halle, Saale","2018","Verbesserter Schreib-Calender"
"026183676","90553691","Obv","","","Universitäts- und Landesbibliothek Sachsen-Anhalt","Halle, Saale","2018","Verbesserter und Julianischer Schreib- und Contoir-Calender, Auf das Jahr Christi ..."
"026124009","90648536","Obv","","","Universitäts- und Landesbibliothek Sachsen-Anhalt","Halle, Saale","2018","Frankens Stiftungen"
