"ppn","vd18_nr","type","printer","printer_gnd","publisher","place","date","title"
"025605674","90529766","Abv","","","","Görlitz","1701","Cippi Gorlicenses oder das Gedächtnis der gelehrten und geehrten Görlitzer"
"009499377","90278712","Abv","","","Braun|||Ludwig","Leipzig|||Wittenberg","1701","Unschuldige Nachrichten von alten und neuen theologischen Sachen, Büchern, Uhrkunden, Controversien, Veränderungen, Anmerckungen, Vorschläge u.d.g"
"009334947","90156455","Abv","","","Renger","[S.l.] @|||Halle, S","1701","Das jetzt lebende Leipzig"
"025605666","9052974X","Abv","","","Brandenburg. Soc. der Wiss","[Berlin]","1702","Verbesserter Haußhaltungs-Calender"
"025573233","90515862","Abv","","","","Dresden","1702","Nachricht wieviel arme Kinder und andere Personen in dem Waysen-Hause zu Dresden voritzo zu erhalten und mit allem Bedürffnüs zu versorgen seyn"
"009513574","90292979","Abv","","","","[Halle]","1702","Der curieuse und politische Staats-Mercurius"
"025605682","90529774","Abv","","","Ettinger","Gotha","1703","Tägliches Taschenbuch für alle Stände"
"02560760X","90537408","Abv","","","","Berlin","1705","Haußhaltungs-Calender"
"025552945","90476824","Abv","","","Schönemarck","Sondershausen","1707","Prognosticon"
"025552880","90476824","Abv","","","Schönemarck","Sondershausen","1707","Verbesserter Schwartzburgischer Calender"
"009411240","9022230X","Abv","","","Renger","Franckfurt||Leipzig||[Halle]","1709","Neue Bibliothec Oder Nachricht und Urtheile von neuen Büchern Und allerhand zur Gelehrsamkeit dienenden Sachen"
"026386852","1400013X","Abv","","","","Halle","1710","Des Erbaulichen Zeit-Vertreibers erste Ausflucht, welcher von allerhand nützlichen und curiösen Sachen auf eine ergötzende, freye und geziemende Art raisonniret"
"02444930X","90370066","Abv","","","Waysenhaus","Halle","1710","Bartholomäus Ziegenbalgs ausführlicher Bericht"
"025575996","11319313","Abv","","","","Dresden","1713","Jährlicher Umbgang derer allhiesigen Waysen-Kindere"
"009512330","90291735","Abv","","","Waysenhaus","Halle, S","1713","Der Königl. dänischen Missionarien aus Ost-Indien eingesandte ausführliche Berichte von dem Werck ihres Amts unter den Heyden"
"023926120","90311116","Abv","","","Renger","Halle, Magdeb","1715","Neue Acerra philologica oder Gründliche Nachrichten aus der Philologie, und denen römischen und griechischen Antiquitaeten"
"009513175","9029257X","Abv","","","Renger","Halle","1715","Gundlingiana"
"009510680","90290089","Abv","","","Renger","Halle","1715","Acta philosophorum, das ist gründl. Nachrichten aus der historia philosophica"
"009499598","90278933","Abv","","","Zeitler","Halle||Leipzig","1715","Summarischer Nachrichten von auserlesenen, mehrenteils alten in der Thomasischen Bibliotheque vorhandenen Büchern ... Stück"
"009435646","90237498","Abv","","","Renger","Franckfurt||Leipzig||[Halle]","1717","Neue Bibliothec Oder Nachricht und Urtheile von neuen Büchern Und allerhand zur Gelehrsamkeit dienenden Sachen"
"00944517X","90243897","Abv","","","Neue Buchandlung","Halle im Magdeburgischen","1718","Vermischte Bibliothec Oder: Zulängliche Nachrichten und Unpartheyische Gutachten Von allerhand mehrentheils neuen Büchern und andern gelehrten Materien"
"026556650","90730208","Abv","","","","Leipzig","1721","Vollständige Register der Unschuldigen Nachrichten wie auch derselben Supplementa und die Theologischen Annales"
"02654539X","90721128","Abv","","","","Dresden","1721","Ausführlicher Bericht über des Waysen-Hauses zu Dreßden Bestand"
"009514376","90293770","Abv","","","Braun|||Spörl","Franckfurt||Leipzig|||Halle","1725","Die vernünftigen Tadlerinnen"
"025576127","90519957","Abv","","","","Dresden","1729","Bericht über des Waysen-Haußes in Dreßden auf das ...ste Jahr geschlossenen Bestand"
"026183633","90553691","Abv","","","gedruckt und zu finden by Johann Christoph Berenberg","Lauenburg","1737","Verbesserter und Julianischer Schreib- und Contoir-Calender, Auf das Jahr Christi ..."
"025576119","90519949","Abv","","","","Dresden","1737","Bericht von dem Zustande des Waysen-Hauses zu Dreßden"
"026543486","90720377","Abv","","","Jüdisches Inst","Halle","1738","Joh. Heinrich Callenbergs Relation von einer weitern Bemühung, Jesum Christum als den Heyland des menschlichen Geschlechts dem jüdischen Volck bekannt zu machen"
"025557890","90478215","Abv","","","Varrentrapp","Francfort","1739","Amusemens litteraires ou correspondance politique, historique, philosophique, critique, et galante"
"024752150","10749381","Abv","","","Gedruckt in der Buchdruckerey des Jüdischen und Muhammedanischen Instituti","Halle","1739","D. Joh. Heinrich Callenbergs der Theol. u. Phil. Prof. P. Ord. Nachricht Von einem Versuch Die verlassene Muhammedaner Zur heilsamen Erkäntnis Christi anzuleiten"
"026183811","90553683","Abv","","","gedruckt bey Friedrich Wilhelm Meyer","Braunschweig","1740","Verbesserter Schreib-Calender"
"025576135","90519973","Abv","","","","Dresden","1740","Bericht von dem Waisenhause zu Dresden"
"009423753","90229681","Abv","","","Hemmerde|||Fritsch|||Schuster|||Krug","Halle|||Halle||Leipzig","1741","Der Prüfenden Gesellschafft zu Halle Fortgesetzte, zur Gelehrsamkeit gehörige, Bemühungen"
"025572490","90513355","Abv","","","","[S.l.]","1742","Königlich-Preußischer und Chur-Brandenburgischer Geschichts-Kalender"
"009515402","90294815","Abv","","","E. Schneider|||Grundert","Halle, S","1743","Johann Peter von Ludewigs gelehrte Anzeigen, in alle Wissenschaften, so wol geistlicher als weltlicher, alter und neuer Sachen, welche vormals denen wöchentlichen hallischen Anzeigen einverleibet worden, nunmehro aber zusammen gedrucket und mit einem vollständigen Register versehen"
"024978914","9045040X","Abv","","","Martini","Hamburg","1745","Altonaische gelehrte Zeitungen"
"009517642","90297059","Abv","","","Walther","Erlangen","1746","Erlangische gelehrte Anmerkungen und Nachrichten"
"026553856","10736182","Abv","","","Gebauer","Halle","1747","Samlung von Erleuterungsschriften und Zusätzen zur algemeinen Welthistorie"
"025605321","90537416","Abv","","","","Berlin","1747","Vollständiger Haushaltungs-, Garten- und Geschichts-Kalender"
"026306379","90686446","Abv","","","Beneke","Schiffbek|||Hamburg","1748","Poetischer Neuigkeiten ... Stück"
"025754556","10735100","Abv","","","Deez","Zelle","1748","Elias Friedrich Schmersahls zuverlässige Nachrichten von jüngstverstorbenen Gelehrten"
"009505156","90284550","Abv","","","Gebauer","Halle","1748","Der Gesellige"
"009499164","9027850X","Abv","","","Gebauer","Halle","1748","Nachrichten von einer hallischen Bibliothek"
"026596776","90741978","Abv","","","bey Petro George Mohrenthalen","Dresden","1749","Der Wahrsager, welcher in allerley lustigen und anmuthigen Anmerckungen und Erläuterungen die menschlichen Handlungen so vorstellet, wie sie täglich vor sich gehen"
"009502246","90281616","Abv","","","Gebauer","Halle","1751","Der Mensch"
"024692980","90396103","Abv","","","Gebauer","Halle, S","1752","Altes und Neues von Schulsachen"
"00951242X","90291824","Abv","","","Gebauer","Halle","1752","Siegm. Jac. Baumgartens Nachrichten von merkwürdigen Büchern"
"02497935X","90451171","Abv","","","Görling|||Jungnicol","Erfurt||Gotha|||Erfurt","1754","Erfurtische gelehrte Nachrichten"
"009520775","90299132","Abv","","","Renger","Halle, S","1755","Hallische Beyträge zu der juristischen Gelehrten-Historie"
"024687200","90357663","Abv","","","","Halle||Leipzig","1756","Neues Leipziger Allerley der merkwuerdigsten Begebenheiten unserer Zeit"
"009511547","90290941","Abv","","","Gebauer","Halle","1757","Das Reich der Natur und der Sitten"
"024458945","90379985","Abv","","","Curts","Halle","1758","Daniel Gottfried Schrebers ... Sammlung verschiedener Schriften, welche in die öconomischen, Policey- und Cameral-, auch andere verwandte Wissenschaften einschlagen"
"009512748","90292146","Abv","","","Hemmerde","Halle","1758","Zuverlässige Nachrichten von der Königlich-Preußischen Armee"
"025826557","90593561","Abv","","","","Berlin","1761","Verzeichniß derer in dem ... Jahre ergangenen Edicte, Patente, Mandate, Rescripte, und Haupt-Verordnungen ec"
"009505369","90284763","Abv","","","Gebauer","Halle","1763","Der Glückselige"
"009503935","90283317","Abv","","","Hurter","Frankfurt, M||Leipzig|||Leipzig||Halle|||Schaffhausen","1764","Der Christ am Sonntage"
"026069865","90553675","Abv","","","Geißler|||Nißchen","Pirna","1765","Pirnaischer Chronicken und Historien-Calender"
"009510877","90290275","Abv","","","Crusius|||Curts","Leipzig|||Halle","1765","Daniel Gottfried Schrebers ... neue Cameralschriften"
"024979333","90451155","Abv","","","Curt","Halle","1766","Hallische gelehrte Zeitungen"
"025630016","1087433X","Abv","","","Physikalisch-Oeconomische Bienengesellschaft in Oberlausitz","Budißin","1767","Nahmen und Bemühungen der Physikalisch-Oeconomischen Bienen-Gesellschaft in Ober-Lausitz"
"009512195","9029159X","Abv","","","Curt","Halle","1767","Der Weise"
"009508422","90287827","Abv","","","Gebauer","Halle","1767","Allgemeine historische Bibliothek"
"009506454","90285859","Abv","","","Curt|||Ritter|||Buchenröder|||Buchenröder und Ritter","Halle|||Hamburg","1767","Magazin für die neue Historie und Geographie"
"009503048","90282418","Abv","","","Gebauer","Halle","1767","Allgemeines historisches Magazin"
"025722492","90553632","Abv","","","Physikalisch-Öconomische Bienengesellschaft in Oberlausitz","Budißin","1768","Nachricht von denen disjährigen Bemühungen der Physicalisch-Öconomischen Bienen-Gesellschaft in Ober-Lausitz"
"009502637","90282000","Abv","","","Dodsley","[S.l.]|||Frankfurt||Leipzig|||London||Halle","1768","Bibliothek der elenden Scribenten"
"025722506","90553640","Abv","","","Physikalisch-Oeconomische Bienengesellschaft in Oberlausitz","Budißin","1769","Summarische Haupt-Anzeige von denen disjährigen Bemühungen und Anstalten der gnädigst confirmirten Physikalisch-Ökonomischen Bienen-Gesellschaft in Ober-Lausitz"
"024446017","90366468","Abv","","","Trampe","Halle","1769","Brittisches Theologisches Magazin"
"009514287","90123077","Abv","","","Kümmel","Halle","1770","Journal für Prediger"
"025722514","90553667","Abv","","","Physikalisch-Oeconomische Bienengesellschaft in Oberlausnitz","Budißin","1771","Summarische Anzeige derer Bemühungen und Anstalten der gnädigst confirmirten Churfürstlich Sächßlichen Physikalisch-Ökonomischen Bienen-Gesellschaft in Ober-Lausitz"
"025722522","90553659","Abv","","","Churfürstlich Sächsische Bienengesellschaft in Oberlausitz","Budißin","1772","Geschichte der Churfürstlich Sächsischen Bienengesellschaft in Oberlausitz betreffende Sachen"
"009502114","90281470","Abv","","","Gebauer","Halle","1772","Magazin der deutschen Critik"
"009330615","90142020","Abv","","","Gebauer","Halle","1773","Der Andächtige"
"009510303","90289706","Abv","","","Trampe","Halle","1774","Beyträge zu Beförderung der Naturkunde"
"009500987","90280326","Abv","","","Gebauer","Halle","1774","Die Akademie der Grazien"
"009500391","90279735","Abv","","","Gebauer","Halle","1774","Fortgesetzte Betrachtungen über die neuesten historischen Schriften"
"009499024","90122364","Abv","","","Gebauer","Halle","1774","Der Naturforscher"
"009509852","90289242","Abv","","","Gebauer","Halle","1775","Der Geschichtforscher"
"009510907","90290305","Abv","","","Waisenhaus","Halle","1776","Neuere Geschichte der evangelischen Missionsanstalten zu Bekehrung der Heiden in Ost-Indien"
"009505423","90284828","Abv","","","Hendel","Halle, S","1777","Magazin für Frauenzimmer"
"009511040","90290445","Abv","","","Hendel|||Hoffmann|||Buchhandlung d. Gelehrten","Halle|||Weimar|||Dessau||Leipzig","1780","Magazin der italienischen Litteratur und Künste"
"00951032X","90289722","Abv","","","Hendel","Halle","1780","Vermischte Aufsätze zur Beförderung der Litteratur und der Sitten"
"009335641","90160169","Abv","","","Trampe","Halle","1780","Erzehlungen aus der würklichen Welt"
"024685712","90343182","Abv","","","Crusius","Halle, S","1781","Der Erzieher"
"024421626","90311191","Abv","","","","Halle","1781","Neueste Kritik über Wien"
"009519904","90298667","Abv","","","Renger","Halle","1781","Sammlung auserlesener Abhandlungen aus dem Lehnrechte"
"00950656X","90285964","Abv","","","Gebauer","Halle","1781","Magazin für die Erziehung und Schulen besonders in den Preußischen Staaten"
"009516743","9029615X","Abv","","","Dost","Halle","1782","Briefe über die Bibel im Volkston"
"00951046X","90289862","Abv","","","Hendel","Halle","1782","Magazin für Pharmazie, Botanik und Materia Medica"
"024445991","9036645X","Abv","","","Gebauer","Halle","1783","Historische Miscellaneen"
"009331441","90143353","Abv","","","Hendel","Halle","1783","Magazin der Alterthümer, oder Abbildungen von den vornehmsten geschnittenen Steinen, Büsten, Statuen, Grouppen, erhabenen und vertieften Arbeiten, Gemählden, Vasen und anderen Geräthschaften"
"009501045","90280385","Abv","","","Traupe","Halle","1784","Physicalische Zeitung"
"026639998","90307836","Abv","","","Gebauer","Halle","1785","Medicinischer Briefwechsel"
"025607103","90509412","Abv","","","[Verlag nicht ermittelbar]","[Erscheinungsort nicht ermittelbar]","1785","Addresse-Verzeichnis einer Churfürstl. Sächßl. Hohen Landes-Regierung und sämtlichen dabey angestellten Personalis"
"00951340X","90292804","Abv","","","Hendel","Halle","1785","Neue litterarische Nachrichten für Ärzte, Wundärzte und Naturforscher"
"009501665","90281012","Abv","","","Verl. d. Waisenhauses","Halle","1785","Neues geographisches Magazin"
"024608823","11475072","Abv","","","","[Halle, S.]","1786","Einnahme und Ausgabe bey der Stadt-Almosencasse zu Halle"
"009503234","90282604","Abv","","","","Berlin||Nürnberg|||Halle, S","1786","Monatsschrift für Damen"
"009499067","90278402","Abv","","","Heller","Halle, Saale","1786","Flora"
"009519629","90298500","Abv","","","Hendel","Halle","1787","Miscellaneen zum Lehnrechte"
"00950415X","90283538","Abv","","","Curt|||Cramer","Halle|||Cassel","1787","Magazin für alte, besonders morgenländische und biblische Litteratur"
"00950284X","90282213","Abv","","","Gebauer","Halle","1788","Philosophisches Magazin"
"009519408","9029839X","Abv","","","Zeitung","Halle, S","1789","Allgemeine staatswissenschaftliche und juristische Literatur-Zeitung"
"009505873","90285271","Abv","","","","Halle","1789","Magazin für die Mineralogie und mineralogische Technologie"
"026545187","11229179","Abv","","","bey Johann Jacob Gebauer|||bey Johann Christian Dieterich|||bey J. J. Gebauer","Eisenach||Halle|||Göttingen|||Gotha||Halle","1790","Der Freymaurer, oder Compendiöse Bibliothek alles Wissenswürdigen über geheime Gesellschaften"
"009505210","90284615","Abv","","","Barth","Leipzig","1790","Journal der Physik"
"026143852","90648536","Abv","","","","Halle","1792","Frankens Stiftungen"
"025571893","90509390","Abv","","","Haase","Dresden","1792","Adress-Verzeichnis"
"02556241X","90509404","Abv","","","Friedrich","Libau","1792","Verlohrne Blätter zur Unterhaltung des Witzes und Verstandes"
"009509488","90288882","Abv","","","Gebauer|||Gebauer [[1794]]|||Perthes","Eisenach||Halle|||Gotha||Halle|||Gotha","1792","Der Mineraloge, oder Compendiöse Bibliothek alles Wissenswürdigen aus dem Gebiete der Mineralogie"
"009505733","90285131","Abv","","","Francke","Halle","1792","Museum für das weibliche Geschlecht"
"02554876X","90509382","Abv","","","bey Johann Heinrich Schubothe|||bey Andreas Nitschke","Kopenhagen||Leipzig","1793","Medicinisches Journal"
"009389210","90207114","Abv","","","Hendel","Halle","1793","Der westphälisch-ökonomischen Societät zu Hamm, vermischte Abhandlungen, zur Beförderung der Oekonomie, der Fabriken und Manufakturen, der Handlung, der Künste und Gewerbe"
"025557912","90478223","Abv","","","Gebauer","Gotha","1794","Compendiöse Bibliothek der gemeinnützigsten Kenntnisse für alle Stände"
"024449210","9036998X","Abv","","","Renger","Halle","1794","Auswahl der besten ausländischen geographischen und statistischen Nachrichten zur Aufklärung der Völker- und Länderkunde"
"025557793","90477944","Abv","","","Aue","Köthen","1795","Kritische Bibliothek der schönen Wissenschaften"
"009519211","90298284","Abv","","","Verl. d. Waisenhauses|||Nauck|||Voß","Halle|||Berlin","1795","Beiträge zur Kenntniß der Justizverfassung und juristischen Literatur in den preussischen Staaten"
"009515658","90295064","Abv","","","Kleefeld","Halle||Leipzig","1795","Annalen der Philosophie und des philosophischen Geistes"
"009505075","9028447X","Abv","","","Wolff","Leipzig","1795","Klio"
"025571885","90509366","Abv","","","","[s.l.]","1796","Adreßverzeichniß über das Stift Meißen und die zu demselben gehörigen Städte Wurzen und Mügeln, auch Rittergüther und Pfarrkirchdörfer"
"025561693","90509374","Abv","","","Heybruch","Dessau","1796","Anhalt-Dessauischer Kalender"
"024442089","90362705","Abv","","","Wolf","Leipzig","1796","Medicinische Litteratur"
"009514643","90294041","Abv","","","","Halle","1796","Archiv für die Physiologie"
"025565168","90501136","Abv","","","Ernst","Quedlinburg","1797","Taschenbuch für Freunde und Liebhaber der allgemeinen Weltkunde"
"02555932X","90484142","Abv","","","","[S.l.] @","1797","Sächsische Provinzialblätter"
"025547380","9046365X","Abv","","","","Altenburg","1797","Sächsische Provinzialblätter"
"024686050","90345401","Abv","","","[Renger]","[Halle]","1797","Der Kosmopolit"
"024685933","90345096","Abv","","","Renger","Halle","1797","Der Kosmopolit"
"026288311","90669959","Abv","","","Karl","Osnabrück","1798","Phantasiestücke in Prose und Versen"
"025561146","90503562","Abv","","","","Frankfurt, M|||Marburg","1798","Neue theologische Annalen und theologische Nachrichten"
"025548778","90519930","Abv","","","Schubothe","Kopenhagen||Leipzig","1798","Medicinisch-chirurgisches Journal"
"009504265","90122135","Abv","","","Verl. d. Hof-, Buch- u. Kunsth|||Verl. der Industrie-Comptoir|||Neue Societäts-Buch-u. Kunsth","Rudolstadt|||Weimar|||Halle","1798","London und Paris"
"025567357","90505794","Abv","","","Oehmigke","Berlin","1799","Der Romanenfreund"
"025548786","90505484","Abv","","","Acad. Buchh","Berlin|||Jena","1799","Bibliothek der practischen Heilkunde"
"02469097X","90392809","Abv","","","Voss","Leipzig","1799","Ökonomisch-veterinärische Hefte von der Zucht, Wartung und Stallung der vorzüglichsten Haus- und Nutzthiere"
"00951886X","90298098","Abv","","","Curt","Halle||Leipzig","1799","Juristische Literaturzeitung"
"009518827","90298071","Abv","","","Curt","Halle [u.a.]","1799","Juristische Literaturzeitung"
"009517448","90298128","Abv","","","Schwetschke & Sohn","Halle [u.a.]","1799","Archiv des Criminalrechts"
"009510826","90290224","Abv","","","Verl. d. Waisenhauses","Halle","1799","Neue Beiträge zur Kenntniß der Justizverfassung und juristischen Literatur in den preussischen Staaten"
"025566466","90503554","Abv","","","","Pforta","1800","Kurze Nachricht aus dem Kirchen-Buche der Kirche zu S. Iohannes in Deserto bey der Churfürstl. Sächs. Land-Schule zu Pforte"
"009521496","90299574","Abv","","","Franke","Halle","1800","Magazin für die Gerechtsame des Adels und der Rittergüter in Deutschland"
"009506977","90286375","Abv","","","","Halle","1800","Archiv für die thierische Chemie"
"009500006","90279344","Abv","","","Renger","Halle","1800","Materialien zur wissenschaftlichen Erklärung der neuesten allgemeinen preussischen Landesgesetze"
